-- Merging decision tree log ---
manifest
ADDED from E:\coding\project\i-see\android\app\src\main\AndroidManifest.xml:1:1-46:12
INJECTED from E:\coding\project\i-see\android\app\src\main\AndroidManifest.xml:1:1-46:12
INJECTED from E:\coding\project\i-see\android\app\src\main\AndroidManifest.xml:1:1-46:12
INJECTED from E:\coding\project\i-see\android\app\src\main\AndroidManifest.xml:1:1-46:12
MERGED from E:\coding\project\i-see\android\app\src\main\AndroidManifest.xml:1:1-46:12
MERGED from [:react-native-google-places] E:\coding\project\i-see\node_modules\react-native-google-places\android\build\intermediates\library_manifest\debug\AndroidManifest.xml:2:1-14:12
MERGED from [:react-native-fast-image] E:\coding\project\i-see\node_modules\react-native-fast-image\android\build\intermediates\library_manifest\debug\AndroidManifest.xml:2:1-11:12
MERGED from [:react-native-fbsdk] E:\coding\project\i-see\node_modules\react-native-fbsdk\android\build\intermediates\library_manifest\debug\AndroidManifest.xml:21:1-30:12
MERGED from [:react-native-spinkit] E:\coding\project\i-see\node_modules\react-native-spinkit\android\build\intermediates\library_manifest\debug\AndroidManifest.xml:2:1-16:12
MERGED from [:react-native-maps] E:\coding\project\i-see\node_modules\react-native-maps\lib\android\build\intermediates\library_manifest\debug\AndroidManifest.xml:2:1-12:12
MERGED from [:react-native-image-picker] E:\coding\project\i-see\node_modules\react-native-image-picker\android\build\intermediates\library_manifest\debug\AndroidManifest.xml:2:1-23:12
MERGED from [:react-native-photo-view] E:\coding\project\i-see\node_modules\react-native-photo-view\android\build\intermediates\library_manifest\debug\AndroidManifest.xml:2:1-13:12
MERGED from [:react-native-share] E:\coding\project\i-see\node_modules\react-native-share\android\build\intermediates\library_manifest\debug\AndroidManifest.xml:2:1-13:12
MERGED from [:react-native-linear-gradient] E:\coding\project\i-see\node_modules\react-native-linear-gradient\android\build\intermediates\library_manifest\debug\AndroidManifest.xml:2:1-11:12
MERGED from [:react-native-vector-icons] E:\coding\project\i-see\node_modules\react-native-vector-icons\android\build\intermediates\library_manifest\debug\AndroidManifest.xml:2:1-11:12
MERGED from [:react-native-gesture-handler] E:\coding\project\i-see\node_modules\react-native-gesture-handler\android\build\intermediates\library_manifest\debug\AndroidManifest.xml:2:1-11:12
MERGED from [com.facebook.android:facebook-android-sdk:4.34.0] C:\Users\chudu\.gradle\caches\transforms-1\files-1.1\facebook-android-sdk-4.34.0.aar\6e2403ee46782955667464dc699a7d4c\AndroidManifest.xml:21:1-31:12
MERGED from [com.facebook.react:react-native:0.59.4] C:\Users\chudu\.gradle\caches\transforms-1\files-1.1\react-native-0.59.4.aar\3871601b08f2ecb39bbedcd82bfc8a96\AndroidManifest.xml:2:1-13:12
MERGED from [com.google.android.libraries.places:places:1.1.0] C:\Users\chudu\.gradle\caches\transforms-1\files-1.1\places-1.1.0.aar\822c4710f05122ee4c5dee302319edd6\AndroidManifest.xml:2:1-26:12
MERGED from [com.facebook.android:facebook-login:4.34.0] C:\Users\chudu\.gradle\caches\transforms-1\files-1.1\facebook-login-4.34.0.aar\6a952d00ec62ff9a34fe299b9a0d9b77\AndroidManifest.xml:21:1-31:12
MERGED from [com.facebook.android:facebook-share:4.34.0] C:\Users\chudu\.gradle\caches\transforms-1\files-1.1\facebook-share-4.34.0.aar\6f5ccf044e016d20d7a8c8b59e36ff59\AndroidManifest.xml:21:1-31:12
MERGED from [com.facebook.android:facebook-common:4.34.0] C:\Users\chudu\.gradle\caches\transforms-1\files-1.1\facebook-common-4.34.0.aar\4c1acda500b33ccdf26a350c917de6f5\AndroidManifest.xml:21:1-37:12
MERGED from [com.android.support:appcompat-v7:28.0.0] C:\Users\chudu\.gradle\caches\transforms-1\files-1.1\appcompat-v7-28.0.0.aar\d9a62c32b1f7855564501faa262d1aa1\AndroidManifest.xml:17:1-22:12
MERGED from [com.google.android.gms:play-services-maps:16.1.0] C:\Users\chudu\.gradle\caches\transforms-1\files-1.1\play-services-maps-16.1.0.aar\d7a13b51007b0140d252f230c181b2f5\AndroidManifest.xml:17:1-38:12
MERGED from [com.google.android.gms:play-services-clearcut:16.0.0] C:\Users\chudu\.gradle\caches\transforms-1\files-1.1\play-services-clearcut-16.0.0.aar\4345e2c0d24dc8545619110298ef4c54\AndroidManifest.xml:17:1-24:12
MERGED from [com.google.android.gms:play-services-location:16.0.0] C:\Users\chudu\.gradle\caches\transforms-1\files-1.1\play-services-location-16.0.0.aar\8a5c97f669c464e6b07f19bbde12f9ba\AndroidManifest.xml:2:1-9:12
MERGED from [com.google.android.gms:play-services-phenotype:16.0.0] C:\Users\chudu\.gradle\caches\transforms-1\files-1.1\play-services-phenotype-16.0.0.aar\2ae2e5ff1cdac13cf19c992dab9fb3ce\AndroidManifest.xml:17:1-24:12
MERGED from [com.google.android.gms:play-services-base:16.1.0] C:\Users\chudu\.gradle\caches\transforms-1\files-1.1\play-services-base-16.1.0.aar\25913f37bca0303b242858388d3cb24e\AndroidManifest.xml:17:1-29:12
MERGED from [com.google.android.gms:play-services-tasks:16.0.1] C:\Users\chudu\.gradle\caches\transforms-1\files-1.1\play-services-tasks-16.0.1.aar\83415ad21c0fdd030a0a4e2d7e6a68ce\AndroidManifest.xml:2:1-9:12
MERGED from [com.google.android.gms:play-services-places-placereport:16.0.0] C:\Users\chudu\.gradle\caches\transforms-1\files-1.1\play-services-places-placereport-16.0.0.aar\0289a0fe8c296900b5452984cbc7950e\AndroidManifest.xml:17:1-24:12
MERGED from [com.google.android.gms:play-services-basement:16.2.0] C:\Users\chudu\.gradle\caches\transforms-1\files-1.1\play-services-basement-16.2.0.aar\e5882dda4e6c5cbf488a2ffda3ab5efa\AndroidManifest.xml:17:1-28:12
MERGED from [com.android.support:support-v4:28.0.0] C:\Users\chudu\.gradle\caches\transforms-1\files-1.1\support-v4-28.0.0.aar\bece201057a7a66dab87ba844ba9989e\AndroidManifest.xml:17:1-22:12
MERGED from [com.github.bumptech.glide:okhttp3-integration:4.7.1] C:\Users\chudu\.gradle\caches\transforms-1\files-1.1\okhttp3-integration-4.7.1.aar\c5451c3a664b9c41e070fcfee03f2cd0\AndroidManifest.xml:2:1-16:12
MERGED from [com.github.bumptech.glide:glide:4.7.1] C:\Users\chudu\.gradle\caches\transforms-1\files-1.1\glide-4.7.1.aar\3791b2138372ddacb5c0616c498d9e0a\AndroidManifest.xml:2:1-13:12
MERGED from [com.github.ybq:Android-SpinKit:1.2.0] C:\Users\chudu\.gradle\caches\transforms-1\files-1.1\Android-SpinKit-1.2.0.aar\2c2ea4f55079fd157065c7aa460e00a1\AndroidManifest.xml:2:1-9:12
MERGED from [com.google.maps.android:android-maps-utils:0.5] C:\Users\chudu\.gradle\caches\transforms-1\files-1.1\android-maps-utils-0.5.aar\dfd3c88ab7cf36b7cbb5e07dd1b1a399\AndroidManifest.xml:2:1-13:12
MERGED from [com.facebook.fresco:fresco:1.10.0] C:\Users\chudu\.gradle\caches\transforms-1\files-1.1\fresco-1.10.0.aar\a5ebbd35d3ce49938e0583200677de4b\AndroidManifest.xml:2:1-9:12
MERGED from [me.relex:photodraweeview:1.0.0] C:\Users\chudu\.gradle\caches\transforms-1\files-1.1\photodraweeview-1.0.0.aar\070b22a64efdd25c002709f14ab12a7a\AndroidManifest.xml:2:1-14:12
MERGED from [com.android.support:support-fragment:28.0.0] C:\Users\chudu\.gradle\caches\transforms-1\files-1.1\support-fragment-28.0.0.aar\ad2a957c3f49ecf884240bf40a58f64d\AndroidManifest.xml:17:1-22:12
MERGED from [com.android.support:animated-vector-drawable:28.0.0] C:\Users\chudu\.gradle\caches\transforms-1\files-1.1\animated-vector-drawable-28.0.0.aar\fc74b6809eb2184a6a0ac2174bea252c\AndroidManifest.xml:17:1-22:12
MERGED from [com.android.support:recyclerview-v7:26.1.0] C:\Users\chudu\.gradle\caches\transforms-1\files-1.1\recyclerview-v7-26.1.0.aar\d096adc58eaabfd3d0923adb3a3fe1e1\AndroidManifest.xml:17:1-28:12
MERGED from [com.android.support:support-core-ui:28.0.0] C:\Users\chudu\.gradle\caches\transforms-1\files-1.1\support-core-ui-28.0.0.aar\6481d11cf564bc62f9ffb1b6d6eb67fe\AndroidManifest.xml:17:1-22:12
MERGED from [com.facebook.android:facebook-places:4.34.0] C:\Users\chudu\.gradle\caches\transforms-1\files-1.1\facebook-places-4.34.0.aar\38c42a48c0b1b883427e51f3eb454c08\AndroidManifest.xml:21:1-31:12
MERGED from [com.facebook.android:facebook-applinks:4.34.0] C:\Users\chudu\.gradle\caches\transforms-1\files-1.1\facebook-applinks-4.34.0.aar\82cb4356b8c29666fb8dc15171f01a95\AndroidManifest.xml:21:1-31:12
MERGED from [com.facebook.android:facebook-messenger:4.34.0] C:\Users\chudu\.gradle\caches\transforms-1\files-1.1\facebook-messenger-4.34.0.aar\ab4642884dbd99bb0f09c88e010de199\AndroidManifest.xml:21:1-31:12
MERGED from [com.facebook.android:facebook-marketing:4.34.0] C:\Users\chudu\.gradle\caches\transforms-1\files-1.1\facebook-marketing-4.34.0.aar\bdbc439ee450364ea9ff0e438d726e28\AndroidManifest.xml:21:1-35:12
MERGED from [com.facebook.android:facebook-core:4.34.0] C:\Users\chudu\.gradle\caches\transforms-1\files-1.1\facebook-core-4.34.0.aar\b1957bb6643019a26498501d8ae44951\AndroidManifest.xml:21:1-53:12
MERGED from [com.android.support:support-core-utils:28.0.0] C:\Users\chudu\.gradle\caches\transforms-1\files-1.1\support-core-utils-28.0.0.aar\909c5783c89d122524dd41ce1d7e632f\AndroidManifest.xml:17:1-22:12
MERGED from [com.android.support:support-vector-drawable:28.0.0] C:\Users\chudu\.gradle\caches\transforms-1\files-1.1\support-vector-drawable-28.0.0.aar\ecd4d74c876c8212af5280e585d0ab45\AndroidManifest.xml:17:1-22:12
MERGED from [com.android.support:support-media-compat:28.0.0] C:\Users\chudu\.gradle\caches\transforms-1\files-1.1\support-media-compat-28.0.0.aar\b3d41c01cc4aa6e05dc98e48acaefc24\AndroidManifest.xml:17:1-22:12
MERGED from [com.android.support:loader:28.0.0] C:\Users\chudu\.gradle\caches\transforms-1\files-1.1\loader-28.0.0.aar\0ae07bdb9a533f1c650e5a1acc8e39dd\AndroidManifest.xml:17:1-22:12
MERGED from [com.android.support:viewpager:28.0.0] C:\Users\chudu\.gradle\caches\transforms-1\files-1.1\viewpager-28.0.0.aar\7824dfa323c1985e5fc6f208917f6ab2\AndroidManifest.xml:17:1-22:12
MERGED from [com.android.support:coordinatorlayout:28.0.0] C:\Users\chudu\.gradle\caches\transforms-1\files-1.1\coordinatorlayout-28.0.0.aar\cb870e9a298267ab2d99c7d54aea31e7\AndroidManifest.xml:17:1-22:12
MERGED from [com.android.support:drawerlayout:28.0.0] C:\Users\chudu\.gradle\caches\transforms-1\files-1.1\drawerlayout-28.0.0.aar\ccbb35c1fd8254e87c8416b81a0ee233\AndroidManifest.xml:17:1-22:12
MERGED from [com.android.support:slidingpanelayout:28.0.0] C:\Users\chudu\.gradle\caches\transforms-1\files-1.1\slidingpanelayout-28.0.0.aar\6c34b239ff2d9b0a31a49032a75c2710\AndroidManifest.xml:17:1-22:12
MERGED from [com.android.support:customview:28.0.0] C:\Users\chudu\.gradle\caches\transforms-1\files-1.1\customview-28.0.0.aar\27236fe25ebbf4b18acebb970823049a\AndroidManifest.xml:17:1-22:12
MERGED from [com.android.support:swiperefreshlayout:28.0.0] C:\Users\chudu\.gradle\caches\transforms-1\files-1.1\swiperefreshlayout-28.0.0.aar\7f067c7fdbd0a84240ea63f156196737\AndroidManifest.xml:17:1-22:12
MERGED from [com.android.support:asynclayoutinflater:28.0.0] C:\Users\chudu\.gradle\caches\transforms-1\files-1.1\asynclayoutinflater-28.0.0.aar\9df432c07d34e635eb39c4f238b75706\AndroidManifest.xml:17:1-22:12
MERGED from [com.android.support:customtabs:27.0.2] C:\Users\chudu\.gradle\caches\transforms-1\files-1.1\customtabs-27.0.2.aar\6061f707578119b9539f66c2d4924100\AndroidManifest.xml:17:1-22:12
MERGED from [com.android.support:support-compat:28.0.0] C:\Users\chudu\.gradle\caches\transforms-1\files-1.1\support-compat-28.0.0.aar\8070b0f8b5eadb92557629b258cea63e\AndroidManifest.xml:17:1-24:12
MERGED from [com.android.support:versionedparcelable:28.0.0] C:\Users\chudu\.gradle\caches\transforms-1\files-1.1\versionedparcelable-28.0.0.aar\e816e663a9b82204773d8bb222b0e68f\AndroidManifest.xml:17:1-25:12
MERGED from [com.android.support:cursoradapter:28.0.0] C:\Users\chudu\.gradle\caches\transforms-1\files-1.1\cursoradapter-28.0.0.aar\b8bb0d97028062a2ca1680c3fdc1583c\AndroidManifest.xml:17:1-22:12
MERGED from [com.github.bumptech.glide:gifdecoder:4.7.1] C:\Users\chudu\.gradle\caches\transforms-1\files-1.1\gifdecoder-4.7.1.aar\4347fa1c3ec95ce0009780d23fcc5efa\AndroidManifest.xml:2:1-11:12
MERGED from [android.arch.lifecycle:runtime:1.1.1] C:\Users\chudu\.gradle\caches\transforms-1\files-1.1\runtime-1.1.1.aar\470d8754f9d4f886d1c615ec4dc207c8\AndroidManifest.xml:17:1-22:12
MERGED from [com.android.support:documentfile:28.0.0] C:\Users\chudu\.gradle\caches\transforms-1\files-1.1\documentfile-28.0.0.aar\c8371688d6072e16cf742ab6037aecc2\AndroidManifest.xml:17:1-22:12
MERGED from [com.android.support:localbroadcastmanager:28.0.0] C:\Users\chudu\.gradle\caches\transforms-1\files-1.1\localbroadcastmanager-28.0.0.aar\a7f3223aa277f733f7324e9ca977a7ab\AndroidManifest.xml:17:1-22:12
MERGED from [com.android.support:print:28.0.0] C:\Users\chudu\.gradle\caches\transforms-1\files-1.1\print-28.0.0.aar\fea6168bbc3f7f6a2026774333a9b03f\AndroidManifest.xml:17:1-22:12
MERGED from [android.arch.lifecycle:viewmodel:1.1.1] C:\Users\chudu\.gradle\caches\transforms-1\files-1.1\viewmodel-1.1.1.aar\b8d8b3cdb47007b463d3dd73361c4bad\AndroidManifest.xml:17:1-22:12
MERGED from [com.android.support:interpolator:28.0.0] C:\Users\chudu\.gradle\caches\transforms-1\files-1.1\interpolator-28.0.0.aar\7866b62f3898b87f3eb9ce38a5288a35\AndroidManifest.xml:17:1-22:12
MERGED from [com.android.support:cardview-v7:27.0.2] C:\Users\chudu\.gradle\caches\transforms-1\files-1.1\cardview-v7-27.0.2.aar\7cb8ed25d024a405e6603e989a2ac518\AndroidManifest.xml:17:1-22:12
MERGED from [android.arch.lifecycle:livedata:1.1.1] C:\Users\chudu\.gradle\caches\transforms-1\files-1.1\livedata-1.1.1.aar\57cf94ad183f04d0b0418db634391506\AndroidManifest.xml:17:1-22:12
MERGED from [android.arch.lifecycle:livedata-core:1.1.1] C:\Users\chudu\.gradle\caches\transforms-1\files-1.1\livedata-core-1.1.1.aar\33dcf5ee0ac6eb45c78470f28caedcba\AndroidManifest.xml:17:1-22:12
MERGED from [android.arch.core:runtime:1.1.1] C:\Users\chudu\.gradle\caches\transforms-1\files-1.1\runtime-1.1.1.aar\f7419fa7af7fe39e4ef0aed1edbe422d\AndroidManifest.xml:17:1-22:12
MERGED from [com.facebook.fresco:imagepipeline-okhttp3:1.10.0] C:\Users\chudu\.gradle\caches\transforms-1\files-1.1\imagepipeline-okhttp3-1.10.0.aar\6ee5e81891aaceae2a2edc1c35d70acd\AndroidManifest.xml:2:1-9:12
MERGED from [com.facebook.fresco:drawee:1.10.0] C:\Users\chudu\.gradle\caches\transforms-1\files-1.1\drawee-1.10.0.aar\8d8f128cbefec6a52799205ec738cbe0\AndroidManifest.xml:2:1-9:12
MERGED from [com.facebook.fresco:imagepipeline:1.10.0] C:\Users\chudu\.gradle\caches\transforms-1\files-1.1\imagepipeline-1.10.0.aar\4b85e0066112b8679633fb007b796f5b\AndroidManifest.xml:2:1-9:12
MERGED from [com.facebook.fresco:imagepipeline-base:1.10.0] C:\Users\chudu\.gradle\caches\transforms-1\files-1.1\imagepipeline-base-1.10.0.aar\5f10c655198fd72e83c2602efddf9022\AndroidManifest.xml:2:1-9:12
MERGED from [com.facebook.soloader:soloader:0.6.0] C:\Users\chudu\.gradle\caches\transforms-1\files-1.1\soloader-0.6.0.aar\3d3aa8d5e53f121d085f220143d34427\AndroidManifest.xml:2:1-13:12
MERGED from [com.android.volley:volley:1.1.1] C:\Users\chudu\.gradle\caches\transforms-1\files-1.1\volley-1.1.1.aar\065f05c741d2bb4b378b09f1d7eb9a04\AndroidManifest.xml:2:1-11:12
MERGED from [com.facebook.fresco:fbcore:1.10.0] C:\Users\chudu\.gradle\caches\transforms-1\files-1.1\fbcore-1.10.0.aar\82406aa3ff1dbd5b0b8b40fb421ebf45\AndroidManifest.xml:2:1-9:12
INJECTED from E:\coding\project\i-see\android\app\src\debug\AndroidManifest.xml:2:1-8:12
INJECTED from E:\coding\project\i-see\android\app\src\debug\AndroidManifest.xml:2:1-8:12
INJECTED from E:\coding\project\i-see\android\app\src\debug\AndroidManifest.xml:2:1-8:12
	package
		ADDED from E:\coding\project\i-see\android\app\src\main\AndroidManifest.xml:2:3-28
		INJECTED from E:\coding\project\i-see\android\app\src\main\AndroidManifest.xml
		ADDED from E:\coding\project\i-see\android\app\src\main\AndroidManifest.xml:2:3-28
		INJECTED from E:\coding\project\i-see\android\app\src\debug\AndroidManifest.xml
	android:versionName
		INJECTED from E:\coding\project\i-see\android\app\src\main\AndroidManifest.xml
		ADDED from E:\coding\project\i-see\android\app\src\main\AndroidManifest.xml:1:1-46:12
		INJECTED from E:\coding\project\i-see\android\app\src\debug\AndroidManifest.xml
	xmlns:tools
		ADDED from E:\coding\project\i-see\android\app\src\main\AndroidManifest.xml:3:4-50
	android:versionCode
		INJECTED from E:\coding\project\i-see\android\app\src\main\AndroidManifest.xml
		ADDED from E:\coding\project\i-see\android\app\src\main\AndroidManifest.xml:1:1-46:12
		INJECTED from E:\coding\project\i-see\android\app\src\debug\AndroidManifest.xml
	xmlns:android
		ADDED from E:\coding\project\i-see\android\app\src\main\AndroidManifest.xml:1:11-69
uses-permission#android.permission.ACCESS_WIFI_STATE
ADDED from E:\coding\project\i-see\android\app\src\main\AndroidManifest.xml:5:5-76
MERGED from [com.google.android.libraries.places:places:1.1.0] C:\Users\chudu\.gradle\caches\transforms-1\files-1.1\places-1.1.0.aar\822c4710f05122ee4c5dee302319edd6\AndroidManifest.xml:10:5-76
MERGED from [com.google.android.libraries.places:places:1.1.0] C:\Users\chudu\.gradle\caches\transforms-1\files-1.1\places-1.1.0.aar\822c4710f05122ee4c5dee302319edd6\AndroidManifest.xml:10:5-76
	android:name
		ADDED from E:\coding\project\i-see\android\app\src\main\AndroidManifest.xml:5:22-73
uses-permission#android.permission.INTERNET
ADDED from E:\coding\project\i-see\android\app\src\main\AndroidManifest.xml:6:5-67
MERGED from [:react-native-maps] E:\coding\project\i-see\node_modules\react-native-maps\lib\android\build\intermediates\library_manifest\debug\AndroidManifest.xml:9:5-67
MERGED from [:react-native-maps] E:\coding\project\i-see\node_modules\react-native-maps\lib\android\build\intermediates\library_manifest\debug\AndroidManifest.xml:9:5-67
MERGED from [com.google.android.libraries.places:places:1.1.0] C:\Users\chudu\.gradle\caches\transforms-1\files-1.1\places-1.1.0.aar\822c4710f05122ee4c5dee302319edd6\AndroidManifest.xml:11:5-67
MERGED from [com.google.android.libraries.places:places:1.1.0] C:\Users\chudu\.gradle\caches\transforms-1\files-1.1\places-1.1.0.aar\822c4710f05122ee4c5dee302319edd6\AndroidManifest.xml:11:5-67
MERGED from [com.google.android.gms:play-services-maps:16.1.0] C:\Users\chudu\.gradle\caches\transforms-1\files-1.1\play-services-maps-16.1.0.aar\d7a13b51007b0140d252f230c181b2f5\AndroidManifest.xml:24:5-67
MERGED from [com.google.android.gms:play-services-maps:16.1.0] C:\Users\chudu\.gradle\caches\transforms-1\files-1.1\play-services-maps-16.1.0.aar\d7a13b51007b0140d252f230c181b2f5\AndroidManifest.xml:24:5-67
	android:name
		ADDED from E:\coding\project\i-see\android\app\src\main\AndroidManifest.xml:6:22-64
uses-permission#android.permission.SYSTEM_ALERT_WINDOW
ADDED from E:\coding\project\i-see\android\app\src\main\AndroidManifest.xml:7:6-78
MERGED from E:\coding\project\i-see\android\app\src\main\AndroidManifest.xml:7:6-78
MERGED from E:\coding\project\i-see\android\app\src\main\AndroidManifest.xml:7:6-78
	android:name
		ADDED from E:\coding\project\i-see\android\app\src\main\AndroidManifest.xml:7:23-76
uses-permission#android.permission.RECORD_AUDIO
ADDED from E:\coding\project\i-see\android\app\src\main\AndroidManifest.xml:8:5-70
	android:name
		ADDED from E:\coding\project\i-see\android\app\src\main\AndroidManifest.xml:8:22-68
uses-permission#android.permission.CAMERA
ADDED from E:\coding\project\i-see\android\app\src\main\AndroidManifest.xml:9:5-65
	android:name
		ADDED from E:\coding\project\i-see\android\app\src\main\AndroidManifest.xml:9:22-62
uses-permission#android.permission.ACCESS_FINE_LOCATION
ADDED from E:\coding\project\i-see\android\app\src\main\AndroidManifest.xml:10:6-80
MERGED from [com.google.android.libraries.places:places:1.1.0] C:\Users\chudu\.gradle\caches\transforms-1\files-1.1\places-1.1.0.aar\822c4710f05122ee4c5dee302319edd6\AndroidManifest.xml:9:5-79
MERGED from [com.google.android.libraries.places:places:1.1.0] C:\Users\chudu\.gradle\caches\transforms-1\files-1.1\places-1.1.0.aar\822c4710f05122ee4c5dee302319edd6\AndroidManifest.xml:9:5-79
	android:name
		ADDED from E:\coding\project\i-see\android\app\src\main\AndroidManifest.xml:10:23-77
uses-permission#android.permission.WRITE_EXTERNAL_STORAGE
ADDED from E:\coding\project\i-see\android\app\src\main\AndroidManifest.xml:11:5-80
MERGED from [:react-native-share] E:\coding\project\i-see\node_modules\react-native-share\android\build\intermediates\library_manifest\debug\AndroidManifest.xml:11:5-81
MERGED from [:react-native-share] E:\coding\project\i-see\node_modules\react-native-share\android\build\intermediates\library_manifest\debug\AndroidManifest.xml:11:5-81
	android:name
		ADDED from E:\coding\project\i-see\android\app\src\main\AndroidManifest.xml:11:22-78
uses-permission#android.permission.READ_EXTERNAL_STORAGE
ADDED from E:\coding\project\i-see\android\app\src\main\AndroidManifest.xml:12:5-80
	android:name
		ADDED from E:\coding\project\i-see\android\app\src\main\AndroidManifest.xml:12:22-77
application
ADDED from E:\coding\project\i-see\android\app\src\main\AndroidManifest.xml:13:5-44:19
MERGED from E:\coding\project\i-see\android\app\src\main\AndroidManifest.xml:13:5-44:19
MERGED from E:\coding\project\i-see\android\app\src\main\AndroidManifest.xml:13:5-44:19
MERGED from [:react-native-google-places] E:\coding\project\i-see\node_modules\react-native-google-places\android\build\intermediates\library_manifest\debug\AndroidManifest.xml:9:5-12:19
MERGED from [:react-native-google-places] E:\coding\project\i-see\node_modules\react-native-google-places\android\build\intermediates\library_manifest\debug\AndroidManifest.xml:9:5-12:19
MERGED from [:react-native-fbsdk] E:\coding\project\i-see\node_modules\react-native-fbsdk\android\build\intermediates\library_manifest\debug\AndroidManifest.xml:28:5-20
MERGED from [:react-native-fbsdk] E:\coding\project\i-see\node_modules\react-native-fbsdk\android\build\intermediates\library_manifest\debug\AndroidManifest.xml:28:5-20
MERGED from [:react-native-spinkit] E:\coding\project\i-see\node_modules\react-native-spinkit\android\build\intermediates\library_manifest\debug\AndroidManifest.xml:11:5-14:19
MERGED from [:react-native-spinkit] E:\coding\project\i-see\node_modules\react-native-spinkit\android\build\intermediates\library_manifest\debug\AndroidManifest.xml:11:5-14:19
MERGED from [:react-native-image-picker] E:\coding\project\i-see\node_modules\react-native-image-picker\android\build\intermediates\library_manifest\debug\AndroidManifest.xml:11:5-21:19
MERGED from [:react-native-image-picker] E:\coding\project\i-see\node_modules\react-native-image-picker\android\build\intermediates\library_manifest\debug\AndroidManifest.xml:11:5-21:19
MERGED from [:react-native-photo-view] E:\coding\project\i-see\node_modules\react-native-photo-view\android\build\intermediates\library_manifest\debug\AndroidManifest.xml:10:5-11:19
MERGED from [:react-native-photo-view] E:\coding\project\i-see\node_modules\react-native-photo-view\android\build\intermediates\library_manifest\debug\AndroidManifest.xml:10:5-11:19
MERGED from [com.facebook.android:facebook-android-sdk:4.34.0] C:\Users\chudu\.gradle\caches\transforms-1\files-1.1\facebook-android-sdk-4.34.0.aar\6e2403ee46782955667464dc699a7d4c\AndroidManifest.xml:28:5-29:19
MERGED from [com.facebook.android:facebook-android-sdk:4.34.0] C:\Users\chudu\.gradle\caches\transforms-1\files-1.1\facebook-android-sdk-4.34.0.aar\6e2403ee46782955667464dc699a7d4c\AndroidManifest.xml:28:5-29:19
MERGED from [com.facebook.react:react-native:0.59.4] C:\Users\chudu\.gradle\caches\transforms-1\files-1.1\react-native-0.59.4.aar\3871601b08f2ecb39bbedcd82bfc8a96\AndroidManifest.xml:11:5-20
MERGED from [com.facebook.react:react-native:0.59.4] C:\Users\chudu\.gradle\caches\transforms-1\files-1.1\react-native-0.59.4.aar\3871601b08f2ecb39bbedcd82bfc8a96\AndroidManifest.xml:11:5-20
MERGED from [com.google.android.libraries.places:places:1.1.0] C:\Users\chudu\.gradle\caches\transforms-1\files-1.1\places-1.1.0.aar\822c4710f05122ee4c5dee302319edd6\AndroidManifest.xml:13:5-24:19
MERGED from [com.google.android.libraries.places:places:1.1.0] C:\Users\chudu\.gradle\caches\transforms-1\files-1.1\places-1.1.0.aar\822c4710f05122ee4c5dee302319edd6\AndroidManifest.xml:13:5-24:19
MERGED from [com.facebook.android:facebook-login:4.34.0] C:\Users\chudu\.gradle\caches\transforms-1\files-1.1\facebook-login-4.34.0.aar\6a952d00ec62ff9a34fe299b9a0d9b77\AndroidManifest.xml:28:5-29:19
MERGED from [com.facebook.android:facebook-login:4.34.0] C:\Users\chudu\.gradle\caches\transforms-1\files-1.1\facebook-login-4.34.0.aar\6a952d00ec62ff9a34fe299b9a0d9b77\AndroidManifest.xml:28:5-29:19
MERGED from [com.facebook.android:facebook-share:4.34.0] C:\Users\chudu\.gradle\caches\transforms-1\files-1.1\facebook-share-4.34.0.aar\6f5ccf044e016d20d7a8c8b59e36ff59\AndroidManifest.xml:28:5-29:19
MERGED from [com.facebook.android:facebook-share:4.34.0] C:\Users\chudu\.gradle\caches\transforms-1\files-1.1\facebook-share-4.34.0.aar\6f5ccf044e016d20d7a8c8b59e36ff59\AndroidManifest.xml:28:5-29:19
MERGED from [com.facebook.android:facebook-common:4.34.0] C:\Users\chudu\.gradle\caches\transforms-1\files-1.1\facebook-common-4.34.0.aar\4c1acda500b33ccdf26a350c917de6f5\AndroidManifest.xml:28:5-35:19
MERGED from [com.facebook.android:facebook-common:4.34.0] C:\Users\chudu\.gradle\caches\transforms-1\files-1.1\facebook-common-4.34.0.aar\4c1acda500b33ccdf26a350c917de6f5\AndroidManifest.xml:28:5-35:19
MERGED from [com.google.android.gms:play-services-maps:16.1.0] C:\Users\chudu\.gradle\caches\transforms-1\files-1.1\play-services-maps-16.1.0.aar\d7a13b51007b0140d252f230c181b2f5\AndroidManifest.xml:30:5-36:19
MERGED from [com.google.android.gms:play-services-maps:16.1.0] C:\Users\chudu\.gradle\caches\transforms-1\files-1.1\play-services-maps-16.1.0.aar\d7a13b51007b0140d252f230c181b2f5\AndroidManifest.xml:30:5-36:19
MERGED from [com.google.android.gms:play-services-clearcut:16.0.0] C:\Users\chudu\.gradle\caches\transforms-1\files-1.1\play-services-clearcut-16.0.0.aar\4345e2c0d24dc8545619110298ef4c54\AndroidManifest.xml:22:5-20
MERGED from [com.google.android.gms:play-services-clearcut:16.0.0] C:\Users\chudu\.gradle\caches\transforms-1\files-1.1\play-services-clearcut-16.0.0.aar\4345e2c0d24dc8545619110298ef4c54\AndroidManifest.xml:22:5-20
MERGED from [com.google.android.gms:play-services-location:16.0.0] C:\Users\chudu\.gradle\caches\transforms-1\files-1.1\play-services-location-16.0.0.aar\8a5c97f669c464e6b07f19bbde12f9ba\AndroidManifest.xml:7:5-20
MERGED from [com.google.android.gms:play-services-location:16.0.0] C:\Users\chudu\.gradle\caches\transforms-1\files-1.1\play-services-location-16.0.0.aar\8a5c97f669c464e6b07f19bbde12f9ba\AndroidManifest.xml:7:5-20
MERGED from [com.google.android.gms:play-services-phenotype:16.0.0] C:\Users\chudu\.gradle\caches\transforms-1\files-1.1\play-services-phenotype-16.0.0.aar\2ae2e5ff1cdac13cf19c992dab9fb3ce\AndroidManifest.xml:22:5-20
MERGED from [com.google.android.gms:play-services-phenotype:16.0.0] C:\Users\chudu\.gradle\caches\transforms-1\files-1.1\play-services-phenotype-16.0.0.aar\2ae2e5ff1cdac13cf19c992dab9fb3ce\AndroidManifest.xml:22:5-20
MERGED from [com.google.android.gms:play-services-base:16.1.0] C:\Users\chudu\.gradle\caches\transforms-1\files-1.1\play-services-base-16.1.0.aar\25913f37bca0303b242858388d3cb24e\AndroidManifest.xml:22:5-27:19
MERGED from [com.google.android.gms:play-services-base:16.1.0] C:\Users\chudu\.gradle\caches\transforms-1\files-1.1\play-services-base-16.1.0.aar\25913f37bca0303b242858388d3cb24e\AndroidManifest.xml:22:5-27:19
MERGED from [com.google.android.gms:play-services-tasks:16.0.1] C:\Users\chudu\.gradle\caches\transforms-1\files-1.1\play-services-tasks-16.0.1.aar\83415ad21c0fdd030a0a4e2d7e6a68ce\AndroidManifest.xml:7:5-20
MERGED from [com.google.android.gms:play-services-tasks:16.0.1] C:\Users\chudu\.gradle\caches\transforms-1\files-1.1\play-services-tasks-16.0.1.aar\83415ad21c0fdd030a0a4e2d7e6a68ce\AndroidManifest.xml:7:5-20
MERGED from [com.google.android.gms:play-services-places-placereport:16.0.0] C:\Users\chudu\.gradle\caches\transforms-1\files-1.1\play-services-places-placereport-16.0.0.aar\0289a0fe8c296900b5452984cbc7950e\AndroidManifest.xml:22:5-20
MERGED from [com.google.android.gms:play-services-places-placereport:16.0.0] C:\Users\chudu\.gradle\caches\transforms-1\files-1.1\play-services-places-placereport-16.0.0.aar\0289a0fe8c296900b5452984cbc7950e\AndroidManifest.xml:22:5-20
MERGED from [com.google.android.gms:play-services-basement:16.2.0] C:\Users\chudu\.gradle\caches\transforms-1\files-1.1\play-services-basement-16.2.0.aar\e5882dda4e6c5cbf488a2ffda3ab5efa\AndroidManifest.xml:22:5-26:19
MERGED from [com.google.android.gms:play-services-basement:16.2.0] C:\Users\chudu\.gradle\caches\transforms-1\files-1.1\play-services-basement-16.2.0.aar\e5882dda4e6c5cbf488a2ffda3ab5efa\AndroidManifest.xml:22:5-26:19
MERGED from [com.github.bumptech.glide:okhttp3-integration:4.7.1] C:\Users\chudu\.gradle\caches\transforms-1\files-1.1\okhttp3-integration-4.7.1.aar\c5451c3a664b9c41e070fcfee03f2cd0\AndroidManifest.xml:10:5-14:19
MERGED from [com.github.bumptech.glide:okhttp3-integration:4.7.1] C:\Users\chudu\.gradle\caches\transforms-1\files-1.1\okhttp3-integration-4.7.1.aar\c5451c3a664b9c41e070fcfee03f2cd0\AndroidManifest.xml:10:5-14:19
MERGED from [com.github.bumptech.glide:glide:4.7.1] C:\Users\chudu\.gradle\caches\transforms-1\files-1.1\glide-4.7.1.aar\3791b2138372ddacb5c0616c498d9e0a\AndroidManifest.xml:11:5-20
MERGED from [com.github.bumptech.glide:glide:4.7.1] C:\Users\chudu\.gradle\caches\transforms-1\files-1.1\glide-4.7.1.aar\3791b2138372ddacb5c0616c498d9e0a\AndroidManifest.xml:11:5-20
MERGED from [com.google.maps.android:android-maps-utils:0.5] C:\Users\chudu\.gradle\caches\transforms-1\files-1.1\android-maps-utils-0.5.aar\dfd3c88ab7cf36b7cbb5e07dd1b1a399\AndroidManifest.xml:7:5-11:19
MERGED from [com.google.maps.android:android-maps-utils:0.5] C:\Users\chudu\.gradle\caches\transforms-1\files-1.1\android-maps-utils-0.5.aar\dfd3c88ab7cf36b7cbb5e07dd1b1a399\AndroidManifest.xml:7:5-11:19
MERGED from [me.relex:photodraweeview:1.0.0] C:\Users\chudu\.gradle\caches\transforms-1\files-1.1\photodraweeview-1.0.0.aar\070b22a64efdd25c002709f14ab12a7a\AndroidManifest.xml:9:5-12:19
MERGED from [me.relex:photodraweeview:1.0.0] C:\Users\chudu\.gradle\caches\transforms-1\files-1.1\photodraweeview-1.0.0.aar\070b22a64efdd25c002709f14ab12a7a\AndroidManifest.xml:9:5-12:19
MERGED from [com.android.support:recyclerview-v7:26.1.0] C:\Users\chudu\.gradle\caches\transforms-1\files-1.1\recyclerview-v7-26.1.0.aar\d096adc58eaabfd3d0923adb3a3fe1e1\AndroidManifest.xml:22:5-26:19
MERGED from [com.android.support:recyclerview-v7:26.1.0] C:\Users\chudu\.gradle\caches\transforms-1\files-1.1\recyclerview-v7-26.1.0.aar\d096adc58eaabfd3d0923adb3a3fe1e1\AndroidManifest.xml:22:5-26:19
MERGED from [com.facebook.android:facebook-places:4.34.0] C:\Users\chudu\.gradle\caches\transforms-1\files-1.1\facebook-places-4.34.0.aar\38c42a48c0b1b883427e51f3eb454c08\AndroidManifest.xml:28:5-29:19
MERGED from [com.facebook.android:facebook-places:4.34.0] C:\Users\chudu\.gradle\caches\transforms-1\files-1.1\facebook-places-4.34.0.aar\38c42a48c0b1b883427e51f3eb454c08\AndroidManifest.xml:28:5-29:19
MERGED from [com.facebook.android:facebook-applinks:4.34.0] C:\Users\chudu\.gradle\caches\transforms-1\files-1.1\facebook-applinks-4.34.0.aar\82cb4356b8c29666fb8dc15171f01a95\AndroidManifest.xml:28:5-29:19
MERGED from [com.facebook.android:facebook-applinks:4.34.0] C:\Users\chudu\.gradle\caches\transforms-1\files-1.1\facebook-applinks-4.34.0.aar\82cb4356b8c29666fb8dc15171f01a95\AndroidManifest.xml:28:5-29:19
MERGED from [com.facebook.android:facebook-messenger:4.34.0] C:\Users\chudu\.gradle\caches\transforms-1\files-1.1\facebook-messenger-4.34.0.aar\ab4642884dbd99bb0f09c88e010de199\AndroidManifest.xml:28:5-29:19
MERGED from [com.facebook.android:facebook-messenger:4.34.0] C:\Users\chudu\.gradle\caches\transforms-1\files-1.1\facebook-messenger-4.34.0.aar\ab4642884dbd99bb0f09c88e010de199\AndroidManifest.xml:28:5-29:19
MERGED from [com.facebook.android:facebook-marketing:4.34.0] C:\Users\chudu\.gradle\caches\transforms-1\files-1.1\facebook-marketing-4.34.0.aar\bdbc439ee450364ea9ff0e438d726e28\AndroidManifest.xml:28:5-33:19
MERGED from [com.facebook.android:facebook-marketing:4.34.0] C:\Users\chudu\.gradle\caches\transforms-1\files-1.1\facebook-marketing-4.34.0.aar\bdbc439ee450364ea9ff0e438d726e28\AndroidManifest.xml:28:5-33:19
MERGED from [com.facebook.android:facebook-core:4.34.0] C:\Users\chudu\.gradle\caches\transforms-1\files-1.1\facebook-core-4.34.0.aar\b1957bb6643019a26498501d8ae44951\AndroidManifest.xml:28:5-51:19
MERGED from [com.facebook.android:facebook-core:4.34.0] C:\Users\chudu\.gradle\caches\transforms-1\files-1.1\facebook-core-4.34.0.aar\b1957bb6643019a26498501d8ae44951\AndroidManifest.xml:28:5-51:19
MERGED from [com.android.support:support-compat:28.0.0] C:\Users\chudu\.gradle\caches\transforms-1\files-1.1\support-compat-28.0.0.aar\8070b0f8b5eadb92557629b258cea63e\AndroidManifest.xml:22:5-94
MERGED from [com.android.support:support-compat:28.0.0] C:\Users\chudu\.gradle\caches\transforms-1\files-1.1\support-compat-28.0.0.aar\8070b0f8b5eadb92557629b258cea63e\AndroidManifest.xml:22:5-94
MERGED from [com.android.support:versionedparcelable:28.0.0] C:\Users\chudu\.gradle\caches\transforms-1\files-1.1\versionedparcelable-28.0.0.aar\e816e663a9b82204773d8bb222b0e68f\AndroidManifest.xml:22:5-23:19
MERGED from [com.android.support:versionedparcelable:28.0.0] C:\Users\chudu\.gradle\caches\transforms-1\files-1.1\versionedparcelable-28.0.0.aar\e816e663a9b82204773d8bb222b0e68f\AndroidManifest.xml:22:5-23:19
MERGED from [com.github.bumptech.glide:gifdecoder:4.7.1] C:\Users\chudu\.gradle\caches\transforms-1\files-1.1\gifdecoder-4.7.1.aar\4347fa1c3ec95ce0009780d23fcc5efa\AndroidManifest.xml:9:5-20
MERGED from [com.github.bumptech.glide:gifdecoder:4.7.1] C:\Users\chudu\.gradle\caches\transforms-1\files-1.1\gifdecoder-4.7.1.aar\4347fa1c3ec95ce0009780d23fcc5efa\AndroidManifest.xml:9:5-20
MERGED from [com.facebook.soloader:soloader:0.6.0] C:\Users\chudu\.gradle\caches\transforms-1\files-1.1\soloader-0.6.0.aar\3d3aa8d5e53f121d085f220143d34427\AndroidManifest.xml:11:5-20
MERGED from [com.facebook.soloader:soloader:0.6.0] C:\Users\chudu\.gradle\caches\transforms-1\files-1.1\soloader-0.6.0.aar\3d3aa8d5e53f121d085f220143d34427\AndroidManifest.xml:11:5-20
MERGED from [com.android.volley:volley:1.1.1] C:\Users\chudu\.gradle\caches\transforms-1\files-1.1\volley-1.1.1.aar\065f05c741d2bb4b378b09f1d7eb9a04\AndroidManifest.xml:9:5-20
MERGED from [com.android.volley:volley:1.1.1] C:\Users\chudu\.gradle\caches\transforms-1\files-1.1\volley-1.1.1.aar\065f05c741d2bb4b378b09f1d7eb9a04\AndroidManifest.xml:9:5-20
	android:appComponentFactory
		ADDED from [com.android.support:support-compat:28.0.0] C:\Users\chudu\.gradle\caches\transforms-1\files-1.1\support-compat-28.0.0.aar\8070b0f8b5eadb92557629b258cea63e\AndroidManifest.xml:22:18-91
	android:supportsRtl
		ADDED from [:react-native-google-places] E:\coding\project\i-see\node_modules\react-native-google-places\android\build\intermediates\library_manifest\debug\AndroidManifest.xml:11:9-35
	android:label
		ADDED from E:\coding\project\i-see\android\app\src\main\AndroidManifest.xml:15:7-39
		ADDED from E:\coding\project\i-see\android\app\src\main\AndroidManifest.xml:15:7-39
	tools:ignore
		ADDED from E:\coding\project\i-see\android\app\src\debug\AndroidManifest.xml:7:75-114
	tools:targetApi
		ADDED from E:\coding\project\i-see\android\app\src\debug\AndroidManifest.xml:7:54-74
	android:icon
		ADDED from E:\coding\project\i-see\android\app\src\main\AndroidManifest.xml:16:7-41
		ADDED from E:\coding\project\i-see\android\app\src\main\AndroidManifest.xml:16:7-41
	android:allowBackup
		ADDED from E:\coding\project\i-see\android\app\src\main\AndroidManifest.xml:17:7-34
		ADDED from E:\coding\project\i-see\android\app\src\main\AndroidManifest.xml:17:7-34
		REJECTED from [me.relex:photodraweeview:1.0.0] C:\Users\chudu\.gradle\caches\transforms-1\files-1.1\photodraweeview-1.0.0.aar\070b22a64efdd25c002709f14ab12a7a\AndroidManifest.xml:10:9-35
	android:theme
		ADDED from E:\coding\project\i-see\android\app\src\main\AndroidManifest.xml:18:7-38
		ADDED from E:\coding\project\i-see\android\app\src\main\AndroidManifest.xml:18:7-38
	tools:replace
		ADDED from E:\coding\project\i-see\android\app\src\main\AndroidManifest.xml:19:7-42
		ADDED from E:\coding\project\i-see\android\app\src\main\AndroidManifest.xml:19:7-42
	android:usesCleartextTraffic
		ADDED from E:\coding\project\i-see\android\app\src\debug\AndroidManifest.xml:7:18-53
	android:name
		ADDED from E:\coding\project\i-see\android\app\src\main\AndroidManifest.xml:14:7-38
		ADDED from E:\coding\project\i-see\android\app\src\main\AndroidManifest.xml:14:7-38
activity#com.iseeproject.MainActivity
ADDED from E:\coding\project\i-see\android\app\src\main\AndroidManifest.xml:20:7-29:18
	android:label
		ADDED from E:\coding\project\i-see\android\app\src\main\AndroidManifest.xml:22:9-41
	android:windowSoftInputMode
		ADDED from E:\coding\project\i-see\android\app\src\main\AndroidManifest.xml:24:9-51
	android:configChanges
		ADDED from E:\coding\project\i-see\android\app\src\main\AndroidManifest.xml:23:9-79
	android:name
		ADDED from E:\coding\project\i-see\android\app\src\main\AndroidManifest.xml:21:9-37
intent-filter#action:name:android.intent.action.MAIN+category:name:android.intent.category.LAUNCHER
ADDED from E:\coding\project\i-see\android\app\src\main\AndroidManifest.xml:25:9-28:25
action#android.intent.action.MAIN
ADDED from E:\coding\project\i-see\android\app\src\main\AndroidManifest.xml:26:13-65
	android:name
		ADDED from E:\coding\project\i-see\android\app\src\main\AndroidManifest.xml:26:21-62
category#android.intent.category.LAUNCHER
ADDED from E:\coding\project\i-see\android\app\src\main\AndroidManifest.xml:27:13-73
	android:name
		ADDED from E:\coding\project\i-see\android\app\src\main\AndroidManifest.xml:27:23-70
activity#com.facebook.react.devsupport.DevSettingsActivity
ADDED from E:\coding\project\i-see\android\app\src\main\AndroidManifest.xml:30:7-84
	android:name
		ADDED from E:\coding\project\i-see\android\app\src\main\AndroidManifest.xml:30:17-81
meta-data#com.facebook.sdk.ApplicationId
ADDED from E:\coding\project\i-see\android\app\src\main\AndroidManifest.xml:31:7-105
	android:value
		ADDED from E:\coding\project\i-see\android\app\src\main\AndroidManifest.xml:31:64-103
	android:name
		ADDED from E:\coding\project\i-see\android\app\src\main\AndroidManifest.xml:31:18-63
activity#com.facebook.FacebookActivity
ADDED from E:\coding\project\i-see\android\app\src\main\AndroidManifest.xml:32:9-184
MERGED from [com.facebook.android:facebook-common:4.34.0] C:\Users\chudu\.gradle\caches\transforms-1\files-1.1\facebook-common-4.34.0.aar\4c1acda500b33ccdf26a350c917de6f5\AndroidManifest.xml:29:9-32:66
MERGED from [com.facebook.android:facebook-common:4.34.0] C:\Users\chudu\.gradle\caches\transforms-1\files-1.1\facebook-common-4.34.0.aar\4c1acda500b33ccdf26a350c917de6f5\AndroidManifest.xml:29:9-32:66
	android:label
		ADDED from E:\coding\project\i-see\android\app\src\main\AndroidManifest.xml:32:149-181
	android:configChanges
		ADDED from E:\coding\project\i-see\android\app\src\main\AndroidManifest.xml:32:64-148
	android:theme
		ADDED from [com.facebook.android:facebook-common:4.34.0] C:\Users\chudu\.gradle\caches\transforms-1\files-1.1\facebook-common-4.34.0.aar\4c1acda500b33ccdf26a350c917de6f5\AndroidManifest.xml:32:13-63
	android:name
		ADDED from E:\coding\project\i-see\android\app\src\main\AndroidManifest.xml:32:19-63
activity#com.facebook.CustomTabActivity
ADDED from E:\coding\project\i-see\android\app\src\main\AndroidManifest.xml:33:9-40:21
MERGED from [com.facebook.android:facebook-common:4.34.0] C:\Users\chudu\.gradle\caches\transforms-1\files-1.1\facebook-common-4.34.0.aar\4c1acda500b33ccdf26a350c917de6f5\AndroidManifest.xml:34:9-67
MERGED from [com.facebook.android:facebook-common:4.34.0] C:\Users\chudu\.gradle\caches\transforms-1\files-1.1\facebook-common-4.34.0.aar\4c1acda500b33ccdf26a350c917de6f5\AndroidManifest.xml:34:9-67
	android:exported
		ADDED from E:\coding\project\i-see\android\app\src\main\AndroidManifest.xml:33:65-88
	android:name
		ADDED from E:\coding\project\i-see\android\app\src\main\AndroidManifest.xml:33:19-64
intent-filter#action:name:android.intent.action.VIEW+category:name:android.intent.category.BROWSABLE+category:name:android.intent.category.DEFAULT+data:scheme:@string/fb_login_protocol_scheme
ADDED from E:\coding\project\i-see\android\app\src\main\AndroidManifest.xml:34:9-39:26
action#android.intent.action.VIEW
ADDED from E:\coding\project\i-see\android\app\src\main\AndroidManifest.xml:35:9-61
	android:name
		ADDED from E:\coding\project\i-see\android\app\src\main\AndroidManifest.xml:35:17-58
category#android.intent.category.DEFAULT
ADDED from E:\coding\project\i-see\android\app\src\main\AndroidManifest.xml:36:9-68
	android:name
		ADDED from E:\coding\project\i-see\android\app\src\main\AndroidManifest.xml:36:19-65
category#android.intent.category.BROWSABLE
ADDED from E:\coding\project\i-see\android\app\src\main\AndroidManifest.xml:37:10-71
	android:name
		ADDED from E:\coding\project\i-see\android\app\src\main\AndroidManifest.xml:37:20-68
data
ADDED from E:\coding\project\i-see\android\app\src\main\AndroidManifest.xml:38:10-68
	android:scheme
		ADDED from E:\coding\project\i-see\android\app\src\main\AndroidManifest.xml:38:16-65
meta-data#com.google.android.geo.API_KEY
ADDED from E:\coding\project\i-see\android\app\src\main\AndroidManifest.xml:41:7-43:63
	android:value
		ADDED from E:\coding\project\i-see\android\app\src\main\AndroidManifest.xml:43:6-61
	android:name
		ADDED from E:\coding\project\i-see\android\app\src\main\AndroidManifest.xml:42:6-51
uses-sdk
INJECTED from E:\coding\project\i-see\android\app\src\main\AndroidManifest.xml reason: use-sdk injection requested
INJECTED from E:\coding\project\i-see\android\app\src\main\AndroidManifest.xml
INJECTED from E:\coding\project\i-see\android\app\src\main\AndroidManifest.xml
MERGED from [:react-native-google-places] E:\coding\project\i-see\node_modules\react-native-google-places\android\build\intermediates\library_manifest\debug\AndroidManifest.xml:5:5-7:41
MERGED from [:react-native-google-places] E:\coding\project\i-see\node_modules\react-native-google-places\android\build\intermediates\library_manifest\debug\AndroidManifest.xml:5:5-7:41
MERGED from [:react-native-fast-image] E:\coding\project\i-see\node_modules\react-native-fast-image\android\build\intermediates\library_manifest\debug\AndroidManifest.xml:7:5-9:41
MERGED from [:react-native-fast-image] E:\coding\project\i-see\node_modules\react-native-fast-image\android\build\intermediates\library_manifest\debug\AndroidManifest.xml:7:5-9:41
MERGED from [:react-native-fbsdk] E:\coding\project\i-see\node_modules\react-native-fbsdk\android\build\intermediates\library_manifest\debug\AndroidManifest.xml:24:5-26:41
MERGED from [:react-native-fbsdk] E:\coding\project\i-see\node_modules\react-native-fbsdk\android\build\intermediates\library_manifest\debug\AndroidManifest.xml:24:5-26:41
MERGED from [:react-native-spinkit] E:\coding\project\i-see\node_modules\react-native-spinkit\android\build\intermediates\library_manifest\debug\AndroidManifest.xml:7:5-9:41
MERGED from [:react-native-spinkit] E:\coding\project\i-see\node_modules\react-native-spinkit\android\build\intermediates\library_manifest\debug\AndroidManifest.xml:7:5-9:41
MERGED from [:react-native-maps] E:\coding\project\i-see\node_modules\react-native-maps\lib\android\build\intermediates\library_manifest\debug\AndroidManifest.xml:5:5-7:41
MERGED from [:react-native-maps] E:\coding\project\i-see\node_modules\react-native-maps\lib\android\build\intermediates\library_manifest\debug\AndroidManifest.xml:5:5-7:41
MERGED from [:react-native-image-picker] E:\coding\project\i-see\node_modules\react-native-image-picker\android\build\intermediates\library_manifest\debug\AndroidManifest.xml:7:5-9:41
MERGED from [:react-native-image-picker] E:\coding\project\i-see\node_modules\react-native-image-picker\android\build\intermediates\library_manifest\debug\AndroidManifest.xml:7:5-9:41
MERGED from [:react-native-photo-view] E:\coding\project\i-see\node_modules\react-native-photo-view\android\build\intermediates\library_manifest\debug\AndroidManifest.xml:6:5-8:41
MERGED from [:react-native-photo-view] E:\coding\project\i-see\node_modules\react-native-photo-view\android\build\intermediates\library_manifest\debug\AndroidManifest.xml:6:5-8:41
MERGED from [:react-native-share] E:\coding\project\i-see\node_modules\react-native-share\android\build\intermediates\library_manifest\debug\AndroidManifest.xml:7:5-9:41
MERGED from [:react-native-share] E:\coding\project\i-see\node_modules\react-native-share\android\build\intermediates\library_manifest\debug\AndroidManifest.xml:7:5-9:41
MERGED from [:react-native-linear-gradient] E:\coding\project\i-see\node_modules\react-native-linear-gradient\android\build\intermediates\library_manifest\debug\AndroidManifest.xml:7:5-9:41
MERGED from [:react-native-linear-gradient] E:\coding\project\i-see\node_modules\react-native-linear-gradient\android\build\intermediates\library_manifest\debug\AndroidManifest.xml:7:5-9:41
MERGED from [:react-native-vector-icons] E:\coding\project\i-see\node_modules\react-native-vector-icons\android\build\intermediates\library_manifest\debug\AndroidManifest.xml:7:5-9:41
MERGED from [:react-native-vector-icons] E:\coding\project\i-see\node_modules\react-native-vector-icons\android\build\intermediates\library_manifest\debug\AndroidManifest.xml:7:5-9:41
MERGED from [:react-native-gesture-handler] E:\coding\project\i-see\node_modules\react-native-gesture-handler\android\build\intermediates\library_manifest\debug\AndroidManifest.xml:7:5-9:41
MERGED from [:react-native-gesture-handler] E:\coding\project\i-see\node_modules\react-native-gesture-handler\android\build\intermediates\library_manifest\debug\AndroidManifest.xml:7:5-9:41
MERGED from [com.facebook.android:facebook-android-sdk:4.34.0] C:\Users\chudu\.gradle\caches\transforms-1\files-1.1\facebook-android-sdk-4.34.0.aar\6e2403ee46782955667464dc699a7d4c\AndroidManifest.xml:24:5-26:41
MERGED from [com.facebook.android:facebook-android-sdk:4.34.0] C:\Users\chudu\.gradle\caches\transforms-1\files-1.1\facebook-android-sdk-4.34.0.aar\6e2403ee46782955667464dc699a7d4c\AndroidManifest.xml:24:5-26:41
MERGED from [com.facebook.react:react-native:0.59.4] C:\Users\chudu\.gradle\caches\transforms-1\files-1.1\react-native-0.59.4.aar\3871601b08f2ecb39bbedcd82bfc8a96\AndroidManifest.xml:7:5-9:41
MERGED from [com.facebook.react:react-native:0.59.4] C:\Users\chudu\.gradle\caches\transforms-1\files-1.1\react-native-0.59.4.aar\3871601b08f2ecb39bbedcd82bfc8a96\AndroidManifest.xml:7:5-9:41
MERGED from [com.google.android.libraries.places:places:1.1.0] C:\Users\chudu\.gradle\caches\transforms-1\files-1.1\places-1.1.0.aar\822c4710f05122ee4c5dee302319edd6\AndroidManifest.xml:7:5-44
MERGED from [com.google.android.libraries.places:places:1.1.0] C:\Users\chudu\.gradle\caches\transforms-1\files-1.1\places-1.1.0.aar\822c4710f05122ee4c5dee302319edd6\AndroidManifest.xml:7:5-44
MERGED from [com.facebook.android:facebook-login:4.34.0] C:\Users\chudu\.gradle\caches\transforms-1\files-1.1\facebook-login-4.34.0.aar\6a952d00ec62ff9a34fe299b9a0d9b77\AndroidManifest.xml:24:5-26:41
MERGED from [com.facebook.android:facebook-login:4.34.0] C:\Users\chudu\.gradle\caches\transforms-1\files-1.1\facebook-login-4.34.0.aar\6a952d00ec62ff9a34fe299b9a0d9b77\AndroidManifest.xml:24:5-26:41
MERGED from [com.facebook.android:facebook-share:4.34.0] C:\Users\chudu\.gradle\caches\transforms-1\files-1.1\facebook-share-4.34.0.aar\6f5ccf044e016d20d7a8c8b59e36ff59\AndroidManifest.xml:24:5-26:41
MERGED from [com.facebook.android:facebook-share:4.34.0] C:\Users\chudu\.gradle\caches\transforms-1\files-1.1\facebook-share-4.34.0.aar\6f5ccf044e016d20d7a8c8b59e36ff59\AndroidManifest.xml:24:5-26:41
MERGED from [com.facebook.android:facebook-common:4.34.0] C:\Users\chudu\.gradle\caches\transforms-1\files-1.1\facebook-common-4.34.0.aar\4c1acda500b33ccdf26a350c917de6f5\AndroidManifest.xml:24:5-26:41
MERGED from [com.facebook.android:facebook-common:4.34.0] C:\Users\chudu\.gradle\caches\transforms-1\files-1.1\facebook-common-4.34.0.aar\4c1acda500b33ccdf26a350c917de6f5\AndroidManifest.xml:24:5-26:41
MERGED from [com.android.support:appcompat-v7:28.0.0] C:\Users\chudu\.gradle\caches\transforms-1\files-1.1\appcompat-v7-28.0.0.aar\d9a62c32b1f7855564501faa262d1aa1\AndroidManifest.xml:20:5-44
MERGED from [com.android.support:appcompat-v7:28.0.0] C:\Users\chudu\.gradle\caches\transforms-1\files-1.1\appcompat-v7-28.0.0.aar\d9a62c32b1f7855564501faa262d1aa1\AndroidManifest.xml:20:5-44
MERGED from [com.google.android.gms:play-services-maps:16.1.0] C:\Users\chudu\.gradle\caches\transforms-1\files-1.1\play-services-maps-16.1.0.aar\d7a13b51007b0140d252f230c181b2f5\AndroidManifest.xml:20:5-44
MERGED from [com.google.android.gms:play-services-maps:16.1.0] C:\Users\chudu\.gradle\caches\transforms-1\files-1.1\play-services-maps-16.1.0.aar\d7a13b51007b0140d252f230c181b2f5\AndroidManifest.xml:20:5-44
MERGED from [com.google.android.gms:play-services-clearcut:16.0.0] C:\Users\chudu\.gradle\caches\transforms-1\files-1.1\play-services-clearcut-16.0.0.aar\4345e2c0d24dc8545619110298ef4c54\AndroidManifest.xml:20:5-44
MERGED from [com.google.android.gms:play-services-clearcut:16.0.0] C:\Users\chudu\.gradle\caches\transforms-1\files-1.1\play-services-clearcut-16.0.0.aar\4345e2c0d24dc8545619110298ef4c54\AndroidManifest.xml:20:5-44
MERGED from [com.google.android.gms:play-services-location:16.0.0] C:\Users\chudu\.gradle\caches\transforms-1\files-1.1\play-services-location-16.0.0.aar\8a5c97f669c464e6b07f19bbde12f9ba\AndroidManifest.xml:5:5-44
MERGED from [com.google.android.gms:play-services-location:16.0.0] C:\Users\chudu\.gradle\caches\transforms-1\files-1.1\play-services-location-16.0.0.aar\8a5c97f669c464e6b07f19bbde12f9ba\AndroidManifest.xml:5:5-44
MERGED from [com.google.android.gms:play-services-phenotype:16.0.0] C:\Users\chudu\.gradle\caches\transforms-1\files-1.1\play-services-phenotype-16.0.0.aar\2ae2e5ff1cdac13cf19c992dab9fb3ce\AndroidManifest.xml:20:5-44
MERGED from [com.google.android.gms:play-services-phenotype:16.0.0] C:\Users\chudu\.gradle\caches\transforms-1\files-1.1\play-services-phenotype-16.0.0.aar\2ae2e5ff1cdac13cf19c992dab9fb3ce\AndroidManifest.xml:20:5-44
MERGED from [com.google.android.gms:play-services-base:16.1.0] C:\Users\chudu\.gradle\caches\transforms-1\files-1.1\play-services-base-16.1.0.aar\25913f37bca0303b242858388d3cb24e\AndroidManifest.xml:20:5-44
MERGED from [com.google.android.gms:play-services-base:16.1.0] C:\Users\chudu\.gradle\caches\transforms-1\files-1.1\play-services-base-16.1.0.aar\25913f37bca0303b242858388d3cb24e\AndroidManifest.xml:20:5-44
MERGED from [com.google.android.gms:play-services-tasks:16.0.1] C:\Users\chudu\.gradle\caches\transforms-1\files-1.1\play-services-tasks-16.0.1.aar\83415ad21c0fdd030a0a4e2d7e6a68ce\AndroidManifest.xml:5:5-44
MERGED from [com.google.android.gms:play-services-tasks:16.0.1] C:\Users\chudu\.gradle\caches\transforms-1\files-1.1\play-services-tasks-16.0.1.aar\83415ad21c0fdd030a0a4e2d7e6a68ce\AndroidManifest.xml:5:5-44
MERGED from [com.google.android.gms:play-services-places-placereport:16.0.0] C:\Users\chudu\.gradle\caches\transforms-1\files-1.1\play-services-places-placereport-16.0.0.aar\0289a0fe8c296900b5452984cbc7950e\AndroidManifest.xml:20:5-44
MERGED from [com.google.android.gms:play-services-places-placereport:16.0.0] C:\Users\chudu\.gradle\caches\transforms-1\files-1.1\play-services-places-placereport-16.0.0.aar\0289a0fe8c296900b5452984cbc7950e\AndroidManifest.xml:20:5-44
MERGED from [com.google.android.gms:play-services-basement:16.2.0] C:\Users\chudu\.gradle\caches\transforms-1\files-1.1\play-services-basement-16.2.0.aar\e5882dda4e6c5cbf488a2ffda3ab5efa\AndroidManifest.xml:20:5-44
MERGED from [com.google.android.gms:play-services-basement:16.2.0] C:\Users\chudu\.gradle\caches\transforms-1\files-1.1\play-services-basement-16.2.0.aar\e5882dda4e6c5cbf488a2ffda3ab5efa\AndroidManifest.xml:20:5-44
MERGED from [com.android.support:support-v4:28.0.0] C:\Users\chudu\.gradle\caches\transforms-1\files-1.1\support-v4-28.0.0.aar\bece201057a7a66dab87ba844ba9989e\AndroidManifest.xml:20:5-44
MERGED from [com.android.support:support-v4:28.0.0] C:\Users\chudu\.gradle\caches\transforms-1\files-1.1\support-v4-28.0.0.aar\bece201057a7a66dab87ba844ba9989e\AndroidManifest.xml:20:5-44
MERGED from [com.github.bumptech.glide:okhttp3-integration:4.7.1] C:\Users\chudu\.gradle\caches\transforms-1\files-1.1\okhttp3-integration-4.7.1.aar\c5451c3a664b9c41e070fcfee03f2cd0\AndroidManifest.xml:6:5-8:41
MERGED from [com.github.bumptech.glide:okhttp3-integration:4.7.1] C:\Users\chudu\.gradle\caches\transforms-1\files-1.1\okhttp3-integration-4.7.1.aar\c5451c3a664b9c41e070fcfee03f2cd0\AndroidManifest.xml:6:5-8:41
MERGED from [com.github.bumptech.glide:glide:4.7.1] C:\Users\chudu\.gradle\caches\transforms-1\files-1.1\glide-4.7.1.aar\3791b2138372ddacb5c0616c498d9e0a\AndroidManifest.xml:7:5-9:41
MERGED from [com.github.bumptech.glide:glide:4.7.1] C:\Users\chudu\.gradle\caches\transforms-1\files-1.1\glide-4.7.1.aar\3791b2138372ddacb5c0616c498d9e0a\AndroidManifest.xml:7:5-9:41
MERGED from [com.github.ybq:Android-SpinKit:1.2.0] C:\Users\chudu\.gradle\caches\transforms-1\files-1.1\Android-SpinKit-1.2.0.aar\2c2ea4f55079fd157065c7aa460e00a1\AndroidManifest.xml:5:5-7:41
MERGED from [com.github.ybq:Android-SpinKit:1.2.0] C:\Users\chudu\.gradle\caches\transforms-1\files-1.1\Android-SpinKit-1.2.0.aar\2c2ea4f55079fd157065c7aa460e00a1\AndroidManifest.xml:5:5-7:41
MERGED from [com.google.maps.android:android-maps-utils:0.5] C:\Users\chudu\.gradle\caches\transforms-1\files-1.1\android-maps-utils-0.5.aar\dfd3c88ab7cf36b7cbb5e07dd1b1a399\AndroidManifest.xml:5:5-43
MERGED from [com.google.maps.android:android-maps-utils:0.5] C:\Users\chudu\.gradle\caches\transforms-1\files-1.1\android-maps-utils-0.5.aar\dfd3c88ab7cf36b7cbb5e07dd1b1a399\AndroidManifest.xml:5:5-43
MERGED from [com.facebook.fresco:fresco:1.10.0] C:\Users\chudu\.gradle\caches\transforms-1\files-1.1\fresco-1.10.0.aar\a5ebbd35d3ce49938e0583200677de4b\AndroidManifest.xml:5:5-7:41
MERGED from [com.facebook.fresco:fresco:1.10.0] C:\Users\chudu\.gradle\caches\transforms-1\files-1.1\fresco-1.10.0.aar\a5ebbd35d3ce49938e0583200677de4b\AndroidManifest.xml:5:5-7:41
MERGED from [me.relex:photodraweeview:1.0.0] C:\Users\chudu\.gradle\caches\transforms-1\files-1.1\photodraweeview-1.0.0.aar\070b22a64efdd25c002709f14ab12a7a\AndroidManifest.xml:7:5-44
MERGED from [me.relex:photodraweeview:1.0.0] C:\Users\chudu\.gradle\caches\transforms-1\files-1.1\photodraweeview-1.0.0.aar\070b22a64efdd25c002709f14ab12a7a\AndroidManifest.xml:7:5-44
MERGED from [com.android.support:support-fragment:28.0.0] C:\Users\chudu\.gradle\caches\transforms-1\files-1.1\support-fragment-28.0.0.aar\ad2a957c3f49ecf884240bf40a58f64d\AndroidManifest.xml:20:5-44
MERGED from [com.android.support:support-fragment:28.0.0] C:\Users\chudu\.gradle\caches\transforms-1\files-1.1\support-fragment-28.0.0.aar\ad2a957c3f49ecf884240bf40a58f64d\AndroidManifest.xml:20:5-44
MERGED from [com.android.support:animated-vector-drawable:28.0.0] C:\Users\chudu\.gradle\caches\transforms-1\files-1.1\animated-vector-drawable-28.0.0.aar\fc74b6809eb2184a6a0ac2174bea252c\AndroidManifest.xml:20:5-44
MERGED from [com.android.support:animated-vector-drawable:28.0.0] C:\Users\chudu\.gradle\caches\transforms-1\files-1.1\animated-vector-drawable-28.0.0.aar\fc74b6809eb2184a6a0ac2174bea252c\AndroidManifest.xml:20:5-44
MERGED from [com.android.support:recyclerview-v7:26.1.0] C:\Users\chudu\.gradle\caches\transforms-1\files-1.1\recyclerview-v7-26.1.0.aar\d096adc58eaabfd3d0923adb3a3fe1e1\AndroidManifest.xml:20:5-44
MERGED from [com.android.support:recyclerview-v7:26.1.0] C:\Users\chudu\.gradle\caches\transforms-1\files-1.1\recyclerview-v7-26.1.0.aar\d096adc58eaabfd3d0923adb3a3fe1e1\AndroidManifest.xml:20:5-44
MERGED from [com.android.support:support-core-ui:28.0.0] C:\Users\chudu\.gradle\caches\transforms-1\files-1.1\support-core-ui-28.0.0.aar\6481d11cf564bc62f9ffb1b6d6eb67fe\AndroidManifest.xml:20:5-44
MERGED from [com.android.support:support-core-ui:28.0.0] C:\Users\chudu\.gradle\caches\transforms-1\files-1.1\support-core-ui-28.0.0.aar\6481d11cf564bc62f9ffb1b6d6eb67fe\AndroidManifest.xml:20:5-44
MERGED from [com.facebook.android:facebook-places:4.34.0] C:\Users\chudu\.gradle\caches\transforms-1\files-1.1\facebook-places-4.34.0.aar\38c42a48c0b1b883427e51f3eb454c08\AndroidManifest.xml:24:5-26:41
MERGED from [com.facebook.android:facebook-places:4.34.0] C:\Users\chudu\.gradle\caches\transforms-1\files-1.1\facebook-places-4.34.0.aar\38c42a48c0b1b883427e51f3eb454c08\AndroidManifest.xml:24:5-26:41
MERGED from [com.facebook.android:facebook-applinks:4.34.0] C:\Users\chudu\.gradle\caches\transforms-1\files-1.1\facebook-applinks-4.34.0.aar\82cb4356b8c29666fb8dc15171f01a95\AndroidManifest.xml:24:5-26:41
MERGED from [com.facebook.android:facebook-applinks:4.34.0] C:\Users\chudu\.gradle\caches\transforms-1\files-1.1\facebook-applinks-4.34.0.aar\82cb4356b8c29666fb8dc15171f01a95\AndroidManifest.xml:24:5-26:41
MERGED from [com.facebook.android:facebook-messenger:4.34.0] C:\Users\chudu\.gradle\caches\transforms-1\files-1.1\facebook-messenger-4.34.0.aar\ab4642884dbd99bb0f09c88e010de199\AndroidManifest.xml:24:5-26:41
MERGED from [com.facebook.android:facebook-messenger:4.34.0] C:\Users\chudu\.gradle\caches\transforms-1\files-1.1\facebook-messenger-4.34.0.aar\ab4642884dbd99bb0f09c88e010de199\AndroidManifest.xml:24:5-26:41
MERGED from [com.facebook.android:facebook-marketing:4.34.0] C:\Users\chudu\.gradle\caches\transforms-1\files-1.1\facebook-marketing-4.34.0.aar\bdbc439ee450364ea9ff0e438d726e28\AndroidManifest.xml:24:5-26:41
MERGED from [com.facebook.android:facebook-marketing:4.34.0] C:\Users\chudu\.gradle\caches\transforms-1\files-1.1\facebook-marketing-4.34.0.aar\bdbc439ee450364ea9ff0e438d726e28\AndroidManifest.xml:24:5-26:41
MERGED from [com.facebook.android:facebook-core:4.34.0] C:\Users\chudu\.gradle\caches\transforms-1\files-1.1\facebook-core-4.34.0.aar\b1957bb6643019a26498501d8ae44951\AndroidManifest.xml:24:5-26:41
MERGED from [com.facebook.android:facebook-core:4.34.0] C:\Users\chudu\.gradle\caches\transforms-1\files-1.1\facebook-core-4.34.0.aar\b1957bb6643019a26498501d8ae44951\AndroidManifest.xml:24:5-26:41
MERGED from [com.android.support:support-core-utils:28.0.0] C:\Users\chudu\.gradle\caches\transforms-1\files-1.1\support-core-utils-28.0.0.aar\909c5783c89d122524dd41ce1d7e632f\AndroidManifest.xml:20:5-44
MERGED from [com.android.support:support-core-utils:28.0.0] C:\Users\chudu\.gradle\caches\transforms-1\files-1.1\support-core-utils-28.0.0.aar\909c5783c89d122524dd41ce1d7e632f\AndroidManifest.xml:20:5-44
MERGED from [com.android.support:support-vector-drawable:28.0.0] C:\Users\chudu\.gradle\caches\transforms-1\files-1.1\support-vector-drawable-28.0.0.aar\ecd4d74c876c8212af5280e585d0ab45\AndroidManifest.xml:20:5-44
MERGED from [com.android.support:support-vector-drawable:28.0.0] C:\Users\chudu\.gradle\caches\transforms-1\files-1.1\support-vector-drawable-28.0.0.aar\ecd4d74c876c8212af5280e585d0ab45\AndroidManifest.xml:20:5-44
MERGED from [com.android.support:support-media-compat:28.0.0] C:\Users\chudu\.gradle\caches\transforms-1\files-1.1\support-media-compat-28.0.0.aar\b3d41c01cc4aa6e05dc98e48acaefc24\AndroidManifest.xml:20:5-44
MERGED from [com.android.support:support-media-compat:28.0.0] C:\Users\chudu\.gradle\caches\transforms-1\files-1.1\support-media-compat-28.0.0.aar\b3d41c01cc4aa6e05dc98e48acaefc24\AndroidManifest.xml:20:5-44
MERGED from [com.android.support:loader:28.0.0] C:\Users\chudu\.gradle\caches\transforms-1\files-1.1\loader-28.0.0.aar\0ae07bdb9a533f1c650e5a1acc8e39dd\AndroidManifest.xml:20:5-44
MERGED from [com.android.support:loader:28.0.0] C:\Users\chudu\.gradle\caches\transforms-1\files-1.1\loader-28.0.0.aar\0ae07bdb9a533f1c650e5a1acc8e39dd\AndroidManifest.xml:20:5-44
MERGED from [com.android.support:viewpager:28.0.0] C:\Users\chudu\.gradle\caches\transforms-1\files-1.1\viewpager-28.0.0.aar\7824dfa323c1985e5fc6f208917f6ab2\AndroidManifest.xml:20:5-44
MERGED from [com.android.support:viewpager:28.0.0] C:\Users\chudu\.gradle\caches\transforms-1\files-1.1\viewpager-28.0.0.aar\7824dfa323c1985e5fc6f208917f6ab2\AndroidManifest.xml:20:5-44
MERGED from [com.android.support:coordinatorlayout:28.0.0] C:\Users\chudu\.gradle\caches\transforms-1\files-1.1\coordinatorlayout-28.0.0.aar\cb870e9a298267ab2d99c7d54aea31e7\AndroidManifest.xml:20:5-44
MERGED from [com.android.support:coordinatorlayout:28.0.0] C:\Users\chudu\.gradle\caches\transforms-1\files-1.1\coordinatorlayout-28.0.0.aar\cb870e9a298267ab2d99c7d54aea31e7\AndroidManifest.xml:20:5-44
MERGED from [com.android.support:drawerlayout:28.0.0] C:\Users\chudu\.gradle\caches\transforms-1\files-1.1\drawerlayout-28.0.0.aar\ccbb35c1fd8254e87c8416b81a0ee233\AndroidManifest.xml:20:5-44
MERGED from [com.android.support:drawerlayout:28.0.0] C:\Users\chudu\.gradle\caches\transforms-1\files-1.1\drawerlayout-28.0.0.aar\ccbb35c1fd8254e87c8416b81a0ee233\AndroidManifest.xml:20:5-44
MERGED from [com.android.support:slidingpanelayout:28.0.0] C:\Users\chudu\.gradle\caches\transforms-1\files-1.1\slidingpanelayout-28.0.0.aar\6c34b239ff2d9b0a31a49032a75c2710\AndroidManifest.xml:20:5-44
MERGED from [com.android.support:slidingpanelayout:28.0.0] C:\Users\chudu\.gradle\caches\transforms-1\files-1.1\slidingpanelayout-28.0.0.aar\6c34b239ff2d9b0a31a49032a75c2710\AndroidManifest.xml:20:5-44
MERGED from [com.android.support:customview:28.0.0] C:\Users\chudu\.gradle\caches\transforms-1\files-1.1\customview-28.0.0.aar\27236fe25ebbf4b18acebb970823049a\AndroidManifest.xml:20:5-44
MERGED from [com.android.support:customview:28.0.0] C:\Users\chudu\.gradle\caches\transforms-1\files-1.1\customview-28.0.0.aar\27236fe25ebbf4b18acebb970823049a\AndroidManifest.xml:20:5-44
MERGED from [com.android.support:swiperefreshlayout:28.0.0] C:\Users\chudu\.gradle\caches\transforms-1\files-1.1\swiperefreshlayout-28.0.0.aar\7f067c7fdbd0a84240ea63f156196737\AndroidManifest.xml:20:5-44
MERGED from [com.android.support:swiperefreshlayout:28.0.0] C:\Users\chudu\.gradle\caches\transforms-1\files-1.1\swiperefreshlayout-28.0.0.aar\7f067c7fdbd0a84240ea63f156196737\AndroidManifest.xml:20:5-44
MERGED from [com.android.support:asynclayoutinflater:28.0.0] C:\Users\chudu\.gradle\caches\transforms-1\files-1.1\asynclayoutinflater-28.0.0.aar\9df432c07d34e635eb39c4f238b75706\AndroidManifest.xml:20:5-44
MERGED from [com.android.support:asynclayoutinflater:28.0.0] C:\Users\chudu\.gradle\caches\transforms-1\files-1.1\asynclayoutinflater-28.0.0.aar\9df432c07d34e635eb39c4f238b75706\AndroidManifest.xml:20:5-44
MERGED from [com.android.support:customtabs:27.0.2] C:\Users\chudu\.gradle\caches\transforms-1\files-1.1\customtabs-27.0.2.aar\6061f707578119b9539f66c2d4924100\AndroidManifest.xml:20:5-44
MERGED from [com.android.support:customtabs:27.0.2] C:\Users\chudu\.gradle\caches\transforms-1\files-1.1\customtabs-27.0.2.aar\6061f707578119b9539f66c2d4924100\AndroidManifest.xml:20:5-44
MERGED from [com.android.support:support-compat:28.0.0] C:\Users\chudu\.gradle\caches\transforms-1\files-1.1\support-compat-28.0.0.aar\8070b0f8b5eadb92557629b258cea63e\AndroidManifest.xml:20:5-44
MERGED from [com.android.support:support-compat:28.0.0] C:\Users\chudu\.gradle\caches\transforms-1\files-1.1\support-compat-28.0.0.aar\8070b0f8b5eadb92557629b258cea63e\AndroidManifest.xml:20:5-44
MERGED from [com.android.support:versionedparcelable:28.0.0] C:\Users\chudu\.gradle\caches\transforms-1\files-1.1\versionedparcelable-28.0.0.aar\e816e663a9b82204773d8bb222b0e68f\AndroidManifest.xml:20:5-44
MERGED from [com.android.support:versionedparcelable:28.0.0] C:\Users\chudu\.gradle\caches\transforms-1\files-1.1\versionedparcelable-28.0.0.aar\e816e663a9b82204773d8bb222b0e68f\AndroidManifest.xml:20:5-44
MERGED from [com.android.support:cursoradapter:28.0.0] C:\Users\chudu\.gradle\caches\transforms-1\files-1.1\cursoradapter-28.0.0.aar\b8bb0d97028062a2ca1680c3fdc1583c\AndroidManifest.xml:20:5-44
MERGED from [com.android.support:cursoradapter:28.0.0] C:\Users\chudu\.gradle\caches\transforms-1\files-1.1\cursoradapter-28.0.0.aar\b8bb0d97028062a2ca1680c3fdc1583c\AndroidManifest.xml:20:5-44
MERGED from [com.github.bumptech.glide:gifdecoder:4.7.1] C:\Users\chudu\.gradle\caches\transforms-1\files-1.1\gifdecoder-4.7.1.aar\4347fa1c3ec95ce0009780d23fcc5efa\AndroidManifest.xml:5:5-7:41
MERGED from [com.github.bumptech.glide:gifdecoder:4.7.1] C:\Users\chudu\.gradle\caches\transforms-1\files-1.1\gifdecoder-4.7.1.aar\4347fa1c3ec95ce0009780d23fcc5efa\AndroidManifest.xml:5:5-7:41
MERGED from [android.arch.lifecycle:runtime:1.1.1] C:\Users\chudu\.gradle\caches\transforms-1\files-1.1\runtime-1.1.1.aar\470d8754f9d4f886d1c615ec4dc207c8\AndroidManifest.xml:20:5-44
MERGED from [android.arch.lifecycle:runtime:1.1.1] C:\Users\chudu\.gradle\caches\transforms-1\files-1.1\runtime-1.1.1.aar\470d8754f9d4f886d1c615ec4dc207c8\AndroidManifest.xml:20:5-44
MERGED from [com.android.support:documentfile:28.0.0] C:\Users\chudu\.gradle\caches\transforms-1\files-1.1\documentfile-28.0.0.aar\c8371688d6072e16cf742ab6037aecc2\AndroidManifest.xml:20:5-44
MERGED from [com.android.support:documentfile:28.0.0] C:\Users\chudu\.gradle\caches\transforms-1\files-1.1\documentfile-28.0.0.aar\c8371688d6072e16cf742ab6037aecc2\AndroidManifest.xml:20:5-44
MERGED from [com.android.support:localbroadcastmanager:28.0.0] C:\Users\chudu\.gradle\caches\transforms-1\files-1.1\localbroadcastmanager-28.0.0.aar\a7f3223aa277f733f7324e9ca977a7ab\AndroidManifest.xml:20:5-44
MERGED from [com.android.support:localbroadcastmanager:28.0.0] C:\Users\chudu\.gradle\caches\transforms-1\files-1.1\localbroadcastmanager-28.0.0.aar\a7f3223aa277f733f7324e9ca977a7ab\AndroidManifest.xml:20:5-44
MERGED from [com.android.support:print:28.0.0] C:\Users\chudu\.gradle\caches\transforms-1\files-1.1\print-28.0.0.aar\fea6168bbc3f7f6a2026774333a9b03f\AndroidManifest.xml:20:5-44
MERGED from [com.android.support:print:28.0.0] C:\Users\chudu\.gradle\caches\transforms-1\files-1.1\print-28.0.0.aar\fea6168bbc3f7f6a2026774333a9b03f\AndroidManifest.xml:20:5-44
MERGED from [android.arch.lifecycle:viewmodel:1.1.1] C:\Users\chudu\.gradle\caches\transforms-1\files-1.1\viewmodel-1.1.1.aar\b8d8b3cdb47007b463d3dd73361c4bad\AndroidManifest.xml:20:5-44
MERGED from [android.arch.lifecycle:viewmodel:1.1.1] C:\Users\chudu\.gradle\caches\transforms-1\files-1.1\viewmodel-1.1.1.aar\b8d8b3cdb47007b463d3dd73361c4bad\AndroidManifest.xml:20:5-44
MERGED from [com.android.support:interpolator:28.0.0] C:\Users\chudu\.gradle\caches\transforms-1\files-1.1\interpolator-28.0.0.aar\7866b62f3898b87f3eb9ce38a5288a35\AndroidManifest.xml:20:5-44
MERGED from [com.android.support:interpolator:28.0.0] C:\Users\chudu\.gradle\caches\transforms-1\files-1.1\interpolator-28.0.0.aar\7866b62f3898b87f3eb9ce38a5288a35\AndroidManifest.xml:20:5-44
MERGED from [com.android.support:cardview-v7:27.0.2] C:\Users\chudu\.gradle\caches\transforms-1\files-1.1\cardview-v7-27.0.2.aar\7cb8ed25d024a405e6603e989a2ac518\AndroidManifest.xml:20:5-44
MERGED from [com.android.support:cardview-v7:27.0.2] C:\Users\chudu\.gradle\caches\transforms-1\files-1.1\cardview-v7-27.0.2.aar\7cb8ed25d024a405e6603e989a2ac518\AndroidManifest.xml:20:5-44
MERGED from [android.arch.lifecycle:livedata:1.1.1] C:\Users\chudu\.gradle\caches\transforms-1\files-1.1\livedata-1.1.1.aar\57cf94ad183f04d0b0418db634391506\AndroidManifest.xml:20:5-44
MERGED from [android.arch.lifecycle:livedata:1.1.1] C:\Users\chudu\.gradle\caches\transforms-1\files-1.1\livedata-1.1.1.aar\57cf94ad183f04d0b0418db634391506\AndroidManifest.xml:20:5-44
MERGED from [android.arch.lifecycle:livedata-core:1.1.1] C:\Users\chudu\.gradle\caches\transforms-1\files-1.1\livedata-core-1.1.1.aar\33dcf5ee0ac6eb45c78470f28caedcba\AndroidManifest.xml:20:5-44
MERGED from [android.arch.lifecycle:livedata-core:1.1.1] C:\Users\chudu\.gradle\caches\transforms-1\files-1.1\livedata-core-1.1.1.aar\33dcf5ee0ac6eb45c78470f28caedcba\AndroidManifest.xml:20:5-44
MERGED from [android.arch.core:runtime:1.1.1] C:\Users\chudu\.gradle\caches\transforms-1\files-1.1\runtime-1.1.1.aar\f7419fa7af7fe39e4ef0aed1edbe422d\AndroidManifest.xml:20:5-44
MERGED from [android.arch.core:runtime:1.1.1] C:\Users\chudu\.gradle\caches\transforms-1\files-1.1\runtime-1.1.1.aar\f7419fa7af7fe39e4ef0aed1edbe422d\AndroidManifest.xml:20:5-44
MERGED from [com.facebook.fresco:imagepipeline-okhttp3:1.10.0] C:\Users\chudu\.gradle\caches\transforms-1\files-1.1\imagepipeline-okhttp3-1.10.0.aar\6ee5e81891aaceae2a2edc1c35d70acd\AndroidManifest.xml:5:5-7:41
MERGED from [com.facebook.fresco:imagepipeline-okhttp3:1.10.0] C:\Users\chudu\.gradle\caches\transforms-1\files-1.1\imagepipeline-okhttp3-1.10.0.aar\6ee5e81891aaceae2a2edc1c35d70acd\AndroidManifest.xml:5:5-7:41
MERGED from [com.facebook.fresco:drawee:1.10.0] C:\Users\chudu\.gradle\caches\transforms-1\files-1.1\drawee-1.10.0.aar\8d8f128cbefec6a52799205ec738cbe0\AndroidManifest.xml:5:5-7:41
MERGED from [com.facebook.fresco:drawee:1.10.0] C:\Users\chudu\.gradle\caches\transforms-1\files-1.1\drawee-1.10.0.aar\8d8f128cbefec6a52799205ec738cbe0\AndroidManifest.xml:5:5-7:41
MERGED from [com.facebook.fresco:imagepipeline:1.10.0] C:\Users\chudu\.gradle\caches\transforms-1\files-1.1\imagepipeline-1.10.0.aar\4b85e0066112b8679633fb007b796f5b\AndroidManifest.xml:5:5-7:41
MERGED from [com.facebook.fresco:imagepipeline:1.10.0] C:\Users\chudu\.gradle\caches\transforms-1\files-1.1\imagepipeline-1.10.0.aar\4b85e0066112b8679633fb007b796f5b\AndroidManifest.xml:5:5-7:41
MERGED from [com.facebook.fresco:imagepipeline-base:1.10.0] C:\Users\chudu\.gradle\caches\transforms-1\files-1.1\imagepipeline-base-1.10.0.aar\5f10c655198fd72e83c2602efddf9022\AndroidManifest.xml:5:5-7:41
MERGED from [com.facebook.fresco:imagepipeline-base:1.10.0] C:\Users\chudu\.gradle\caches\transforms-1\files-1.1\imagepipeline-base-1.10.0.aar\5f10c655198fd72e83c2602efddf9022\AndroidManifest.xml:5:5-7:41
MERGED from [com.facebook.soloader:soloader:0.6.0] C:\Users\chudu\.gradle\caches\transforms-1\files-1.1\soloader-0.6.0.aar\3d3aa8d5e53f121d085f220143d34427\AndroidManifest.xml:7:5-9:41
MERGED from [com.facebook.soloader:soloader:0.6.0] C:\Users\chudu\.gradle\caches\transforms-1\files-1.1\soloader-0.6.0.aar\3d3aa8d5e53f121d085f220143d34427\AndroidManifest.xml:7:5-9:41
MERGED from [com.android.volley:volley:1.1.1] C:\Users\chudu\.gradle\caches\transforms-1\files-1.1\volley-1.1.1.aar\065f05c741d2bb4b378b09f1d7eb9a04\AndroidManifest.xml:7:5-43
MERGED from [com.android.volley:volley:1.1.1] C:\Users\chudu\.gradle\caches\transforms-1\files-1.1\volley-1.1.1.aar\065f05c741d2bb4b378b09f1d7eb9a04\AndroidManifest.xml:7:5-43
MERGED from [com.facebook.fresco:fbcore:1.10.0] C:\Users\chudu\.gradle\caches\transforms-1\files-1.1\fbcore-1.10.0.aar\82406aa3ff1dbd5b0b8b40fb421ebf45\AndroidManifest.xml:5:5-7:41
MERGED from [com.facebook.fresco:fbcore:1.10.0] C:\Users\chudu\.gradle\caches\transforms-1\files-1.1\fbcore-1.10.0.aar\82406aa3ff1dbd5b0b8b40fb421ebf45\AndroidManifest.xml:5:5-7:41
INJECTED from E:\coding\project\i-see\android\app\src\debug\AndroidManifest.xml
INJECTED from E:\coding\project\i-see\android\app\src\debug\AndroidManifest.xml
	android:targetSdkVersion
		INJECTED from E:\coding\project\i-see\android\app\src\main\AndroidManifest.xml
		INJECTED from E:\coding\project\i-see\android\app\src\debug\AndroidManifest.xml
	android:minSdkVersion
		INJECTED from E:\coding\project\i-see\android\app\src\main\AndroidManifest.xml
		INJECTED from E:\coding\project\i-see\android\app\src\debug\AndroidManifest.xml
uses-permission#android.permission.ACCESS_COARSE_LOCATION
ADDED from [:react-native-maps] E:\coding\project\i-see\node_modules\react-native-maps\lib\android\build\intermediates\library_manifest\debug\AndroidManifest.xml:10:5-81
	android:name
		ADDED from [:react-native-maps] E:\coding\project\i-see\node_modules\react-native-maps\lib\android\build\intermediates\library_manifest\debug\AndroidManifest.xml:10:22-78
provider#com.imagepicker.FileProvider
ADDED from [:react-native-image-picker] E:\coding\project\i-see\node_modules\react-native-image-picker\android\build\intermediates\library_manifest\debug\AndroidManifest.xml:12:9-20:20
	android:grantUriPermissions
		ADDED from [:react-native-image-picker] E:\coding\project\i-see\node_modules\react-native-image-picker\android\build\intermediates\library_manifest\debug\AndroidManifest.xml:16:13-47
	android:authorities
		ADDED from [:react-native-image-picker] E:\coding\project\i-see\node_modules\react-native-image-picker\android\build\intermediates\library_manifest\debug\AndroidManifest.xml:14:13-60
	android:exported
		ADDED from [:react-native-image-picker] E:\coding\project\i-see\node_modules\react-native-image-picker\android\build\intermediates\library_manifest\debug\AndroidManifest.xml:15:13-37
	android:name
		ADDED from [:react-native-image-picker] E:\coding\project\i-see\node_modules\react-native-image-picker\android\build\intermediates\library_manifest\debug\AndroidManifest.xml:13:13-56
meta-data#android.support.FILE_PROVIDER_PATHS
ADDED from [:react-native-image-picker] E:\coding\project\i-see\node_modules\react-native-image-picker\android\build\intermediates\library_manifest\debug\AndroidManifest.xml:17:13-19:58
	android:resource
		ADDED from [:react-native-image-picker] E:\coding\project\i-see\node_modules\react-native-image-picker\android\build\intermediates\library_manifest\debug\AndroidManifest.xml:19:17-55
	android:name
		ADDED from [:react-native-image-picker] E:\coding\project\i-see\node_modules\react-native-image-picker\android\build\intermediates\library_manifest\debug\AndroidManifest.xml:18:17-67
activity#com.google.android.libraries.places.widget.AutocompleteActivity
ADDED from [com.google.android.libraries.places:places:1.1.0] C:\Users\chudu\.gradle\caches\transforms-1\files-1.1\places-1.1.0.aar\822c4710f05122ee4c5dee302319edd6\AndroidManifest.xml:16:9-23:20
	android:label
		ADDED from [com.google.android.libraries.places:places:1.1.0] C:\Users\chudu\.gradle\caches\transforms-1\files-1.1\places-1.1.0.aar\822c4710f05122ee4c5dee302319edd6\AndroidManifest.xml:20:13-62
	android:hardwareAccelerated
		ADDED from [com.google.android.libraries.places:places:1.1.0] C:\Users\chudu\.gradle\caches\transforms-1\files-1.1\places-1.1.0.aar\822c4710f05122ee4c5dee302319edd6\AndroidManifest.xml:19:13-47
	android:windowSoftInputMode
		ADDED from [com.google.android.libraries.places:places:1.1.0] C:\Users\chudu\.gradle\caches\transforms-1\files-1.1\places-1.1.0.aar\822c4710f05122ee4c5dee302319edd6\AndroidManifest.xml:22:13-71
	android:exported
		ADDED from [com.google.android.libraries.places:places:1.1.0] C:\Users\chudu\.gradle\caches\transforms-1\files-1.1\places-1.1.0.aar\822c4710f05122ee4c5dee302319edd6\AndroidManifest.xml:18:13-37
	android:theme
		ADDED from [com.google.android.libraries.places:places:1.1.0] C:\Users\chudu\.gradle\caches\transforms-1\files-1.1\places-1.1.0.aar\822c4710f05122ee4c5dee302319edd6\AndroidManifest.xml:21:13-66
	android:name
		ADDED from [com.google.android.libraries.places:places:1.1.0] C:\Users\chudu\.gradle\caches\transforms-1\files-1.1\places-1.1.0.aar\822c4710f05122ee4c5dee302319edd6\AndroidManifest.xml:17:13-91
activity#com.facebook.CustomTabMainActivity
ADDED from [com.facebook.android:facebook-common:4.34.0] C:\Users\chudu\.gradle\caches\transforms-1\files-1.1\facebook-common-4.34.0.aar\4c1acda500b33ccdf26a350c917de6f5\AndroidManifest.xml:33:9-71
	android:name
		ADDED from [com.facebook.android:facebook-common:4.34.0] C:\Users\chudu\.gradle\caches\transforms-1\files-1.1\facebook-common-4.34.0.aar\4c1acda500b33ccdf26a350c917de6f5\AndroidManifest.xml:33:19-68
uses-permission#android.permission.ACCESS_NETWORK_STATE
ADDED from [com.google.android.gms:play-services-maps:16.1.0] C:\Users\chudu\.gradle\caches\transforms-1\files-1.1\play-services-maps-16.1.0.aar\d7a13b51007b0140d252f230c181b2f5\AndroidManifest.xml:23:5-79
	android:name
		ADDED from [com.google.android.gms:play-services-maps:16.1.0] C:\Users\chudu\.gradle\caches\transforms-1\files-1.1\play-services-maps-16.1.0.aar\d7a13b51007b0140d252f230c181b2f5\AndroidManifest.xml:23:22-76
uses-feature#0x00020000
ADDED from [com.google.android.gms:play-services-maps:16.1.0] C:\Users\chudu\.gradle\caches\transforms-1\files-1.1\play-services-maps-16.1.0.aar\d7a13b51007b0140d252f230c181b2f5\AndroidManifest.xml:26:5-28:35
	android:glEsVersion
		ADDED from [com.google.android.gms:play-services-maps:16.1.0] C:\Users\chudu\.gradle\caches\transforms-1\files-1.1\play-services-maps-16.1.0.aar\d7a13b51007b0140d252f230c181b2f5\AndroidManifest.xml:27:9-41
	android:required
		ADDED from [com.google.android.gms:play-services-maps:16.1.0] C:\Users\chudu\.gradle\caches\transforms-1\files-1.1\play-services-maps-16.1.0.aar\d7a13b51007b0140d252f230c181b2f5\AndroidManifest.xml:28:9-32
uses-library#org.apache.http.legacy
ADDED from [com.google.android.gms:play-services-maps:16.1.0] C:\Users\chudu\.gradle\caches\transforms-1\files-1.1\play-services-maps-16.1.0.aar\d7a13b51007b0140d252f230c181b2f5\AndroidManifest.xml:33:9-35:40
	android:required
		ADDED from [com.google.android.gms:play-services-maps:16.1.0] C:\Users\chudu\.gradle\caches\transforms-1\files-1.1\play-services-maps-16.1.0.aar\d7a13b51007b0140d252f230c181b2f5\AndroidManifest.xml:35:13-37
	android:name
		ADDED from [com.google.android.gms:play-services-maps:16.1.0] C:\Users\chudu\.gradle\caches\transforms-1\files-1.1\play-services-maps-16.1.0.aar\d7a13b51007b0140d252f230c181b2f5\AndroidManifest.xml:34:13-50
activity#com.google.android.gms.common.api.GoogleApiActivity
ADDED from [com.google.android.gms:play-services-base:16.1.0] C:\Users\chudu\.gradle\caches\transforms-1\files-1.1\play-services-base-16.1.0.aar\25913f37bca0303b242858388d3cb24e\AndroidManifest.xml:23:9-26:75
	android:exported
		ADDED from [com.google.android.gms:play-services-base:16.1.0] C:\Users\chudu\.gradle\caches\transforms-1\files-1.1\play-services-base-16.1.0.aar\25913f37bca0303b242858388d3cb24e\AndroidManifest.xml:25:13-37
	android:theme
		ADDED from [com.google.android.gms:play-services-base:16.1.0] C:\Users\chudu\.gradle\caches\transforms-1\files-1.1\play-services-base-16.1.0.aar\25913f37bca0303b242858388d3cb24e\AndroidManifest.xml:26:13-72
	android:name
		ADDED from [com.google.android.gms:play-services-base:16.1.0] C:\Users\chudu\.gradle\caches\transforms-1\files-1.1\play-services-base-16.1.0.aar\25913f37bca0303b242858388d3cb24e\AndroidManifest.xml:24:13-79
meta-data#com.google.android.gms.version
ADDED from [com.google.android.gms:play-services-basement:16.2.0] C:\Users\chudu\.gradle\caches\transforms-1\files-1.1\play-services-basement-16.2.0.aar\e5882dda4e6c5cbf488a2ffda3ab5efa\AndroidManifest.xml:23:9-25:69
MERGED from [com.google.maps.android:android-maps-utils:0.5] C:\Users\chudu\.gradle\caches\transforms-1\files-1.1\android-maps-utils-0.5.aar\dfd3c88ab7cf36b7cbb5e07dd1b1a399\AndroidManifest.xml:8:9-10:69
MERGED from [com.google.maps.android:android-maps-utils:0.5] C:\Users\chudu\.gradle\caches\transforms-1\files-1.1\android-maps-utils-0.5.aar\dfd3c88ab7cf36b7cbb5e07dd1b1a399\AndroidManifest.xml:8:9-10:69
	android:value
		ADDED from [com.google.android.gms:play-services-basement:16.2.0] C:\Users\chudu\.gradle\caches\transforms-1\files-1.1\play-services-basement-16.2.0.aar\e5882dda4e6c5cbf488a2ffda3ab5efa\AndroidManifest.xml:25:13-66
	android:name
		ADDED from [com.google.android.gms:play-services-basement:16.2.0] C:\Users\chudu\.gradle\caches\transforms-1\files-1.1\play-services-basement-16.2.0.aar\e5882dda4e6c5cbf488a2ffda3ab5efa\AndroidManifest.xml:24:13-58
meta-data#com.bumptech.glide.integration.okhttp3.OkHttpGlideModule
ADDED from [com.github.bumptech.glide:okhttp3-integration:4.7.1] C:\Users\chudu\.gradle\caches\transforms-1\files-1.1\okhttp3-integration-4.7.1.aar\c5451c3a664b9c41e070fcfee03f2cd0\AndroidManifest.xml:11:9-13:43
	android:value
		ADDED from [com.github.bumptech.glide:okhttp3-integration:4.7.1] C:\Users\chudu\.gradle\caches\transforms-1\files-1.1\okhttp3-integration-4.7.1.aar\c5451c3a664b9c41e070fcfee03f2cd0\AndroidManifest.xml:13:13-40
	android:name
		ADDED from [com.github.bumptech.glide:okhttp3-integration:4.7.1] C:\Users\chudu\.gradle\caches\transforms-1\files-1.1\okhttp3-integration-4.7.1.aar\c5451c3a664b9c41e070fcfee03f2cd0\AndroidManifest.xml:12:13-84
meta-data#android.support.VERSION
ADDED from [com.android.support:recyclerview-v7:26.1.0] C:\Users\chudu\.gradle\caches\transforms-1\files-1.1\recyclerview-v7-26.1.0.aar\d096adc58eaabfd3d0923adb3a3fe1e1\AndroidManifest.xml:23:9-25:38
	android:value
		ADDED from [com.android.support:recyclerview-v7:26.1.0] C:\Users\chudu\.gradle\caches\transforms-1\files-1.1\recyclerview-v7-26.1.0.aar\d096adc58eaabfd3d0923adb3a3fe1e1\AndroidManifest.xml:25:13-35
	android:name
		ADDED from [com.android.support:recyclerview-v7:26.1.0] C:\Users\chudu\.gradle\caches\transforms-1\files-1.1\recyclerview-v7-26.1.0.aar\d096adc58eaabfd3d0923adb3a3fe1e1\AndroidManifest.xml:24:13-51
provider#com.facebook.marketing.internal.MarketingInitProvider
ADDED from [com.facebook.android:facebook-marketing:4.34.0] C:\Users\chudu\.gradle\caches\transforms-1\files-1.1\facebook-marketing-4.34.0.aar\bdbc439ee450364ea9ff0e438d726e28\AndroidManifest.xml:29:9-32:40
	android:authorities
		ADDED from [com.facebook.android:facebook-marketing:4.34.0] C:\Users\chudu\.gradle\caches\transforms-1\files-1.1\facebook-marketing-4.34.0.aar\bdbc439ee450364ea9ff0e438d726e28\AndroidManifest.xml:31:13-73
	android:exported
		ADDED from [com.facebook.android:facebook-marketing:4.34.0] C:\Users\chudu\.gradle\caches\transforms-1\files-1.1\facebook-marketing-4.34.0.aar\bdbc439ee450364ea9ff0e438d726e28\AndroidManifest.xml:32:13-37
	android:name
		ADDED from [com.facebook.android:facebook-marketing:4.34.0] C:\Users\chudu\.gradle\caches\transforms-1\files-1.1\facebook-marketing-4.34.0.aar\bdbc439ee450364ea9ff0e438d726e28\AndroidManifest.xml:30:13-81
provider#com.facebook.internal.FacebookInitProvider
ADDED from [com.facebook.android:facebook-core:4.34.0] C:\Users\chudu\.gradle\caches\transforms-1\files-1.1\facebook-core-4.34.0.aar\b1957bb6643019a26498501d8ae44951\AndroidManifest.xml:39:9-42:40
	android:authorities
		ADDED from [com.facebook.android:facebook-core:4.34.0] C:\Users\chudu\.gradle\caches\transforms-1\files-1.1\facebook-core-4.34.0.aar\b1957bb6643019a26498501d8ae44951\AndroidManifest.xml:41:13-72
	android:exported
		ADDED from [com.facebook.android:facebook-core:4.34.0] C:\Users\chudu\.gradle\caches\transforms-1\files-1.1\facebook-core-4.34.0.aar\b1957bb6643019a26498501d8ae44951\AndroidManifest.xml:42:13-37
	android:name
		ADDED from [com.facebook.android:facebook-core:4.34.0] C:\Users\chudu\.gradle\caches\transforms-1\files-1.1\facebook-core-4.34.0.aar\b1957bb6643019a26498501d8ae44951\AndroidManifest.xml:40:13-70
receiver#com.facebook.CurrentAccessTokenExpirationBroadcastReceiver
ADDED from [com.facebook.android:facebook-core:4.34.0] C:\Users\chudu\.gradle\caches\transforms-1\files-1.1\facebook-core-4.34.0.aar\b1957bb6643019a26498501d8ae44951\AndroidManifest.xml:44:9-50:20
	android:exported
		ADDED from [com.facebook.android:facebook-core:4.34.0] C:\Users\chudu\.gradle\caches\transforms-1\files-1.1\facebook-core-4.34.0.aar\b1957bb6643019a26498501d8ae44951\AndroidManifest.xml:46:13-37
	android:name
		ADDED from [com.facebook.android:facebook-core:4.34.0] C:\Users\chudu\.gradle\caches\transforms-1\files-1.1\facebook-core-4.34.0.aar\b1957bb6643019a26498501d8ae44951\AndroidManifest.xml:45:13-86
intent-filter#action:name:com.facebook.sdk.ACTION_CURRENT_ACCESS_TOKEN_CHANGED
ADDED from [com.facebook.android:facebook-core:4.34.0] C:\Users\chudu\.gradle\caches\transforms-1\files-1.1\facebook-core-4.34.0.aar\b1957bb6643019a26498501d8ae44951\AndroidManifest.xml:47:13-49:29
action#com.facebook.sdk.ACTION_CURRENT_ACCESS_TOKEN_CHANGED
ADDED from [com.facebook.android:facebook-core:4.34.0] C:\Users\chudu\.gradle\caches\transforms-1\files-1.1\facebook-core-4.34.0.aar\b1957bb6643019a26498501d8ae44951\AndroidManifest.xml:48:17-95
	android:name
		ADDED from [com.facebook.android:facebook-core:4.34.0] C:\Users\chudu\.gradle\caches\transforms-1\files-1.1\facebook-core-4.34.0.aar\b1957bb6643019a26498501d8ae44951\AndroidManifest.xml:48:25-92
